﻿Log file open, 10/05/21 15:04:37
LogInit: LLM is enabled
LogInit: LLM CsvWriter: off TraceWriter: off
LogInit: Display: Running engine for game: VRRobo
LogPlatformFile: Not using cached read wrapper
LogTaskGraph: Started task graph with 5 named threads and 47 total threads with 3 sets of task threads.
LogStats: Stats thread started at 0.272649
LogD3D11RHI: Loaded GFSDK_Aftermath_Lib.x64.dll
LogICUInternationalization: ICU TimeZone Detection - Raw Offset: -5:00, Platform Override: ''
LogPluginManager: Mounting plugin MeshPainting
LogPluginManager: Mounting plugin XGEController
LogPluginManager: Mounting plugin Paper2D
LogPluginManager: Mounting plugin CameraShakePreviewer
LogPluginManager: Mounting plugin AnimationSharing
LogPluginManager: Mounting plugin LightPropagationVolume
LogPluginManager: Mounting plugin NullSourceCodeAccess
LogPluginManager: Mounting plugin CodeLiteSourceCodeAccess
LogPluginManager: Mounting plugin CLionSourceCodeAccess
LogPluginManager: Mounting plugin GitSourceControl
LogPluginManager: Mounting plugin KDevelopSourceCodeAccess
LogPluginManager: Mounting plugin PlasticSourceControl
LogPluginManager: Mounting plugin PluginUtils
LogPluginManager: Mounting plugin PerforceSourceControl
LogPluginManager: Mounting plugin PropertyAccessNode
LogPluginManager: Mounting plugin SubversionSourceControl
LogPluginManager: Mounting plugin RiderSourceCodeAccess
LogPluginManager: Mounting plugin VisualStudioSourceCodeAccess
LogPluginManager: Mounting plugin XCodeSourceCodeAccess
LogPluginManager: Mounting plugin UObjectPlugin
LogPluginManager: Mounting plugin VisualStudioCodeSourceCodeAccess
LogPluginManager: Mounting plugin AssetManagerEditor
LogPluginManager: Mounting plugin CryptoKeys
LogPluginManager: Mounting plugin CurveEditorTools
LogPluginManager: Mounting plugin DataValidation
LogPluginManager: Mounting plugin FacialAnimation
LogPluginManager: Mounting plugin GameplayTagsEditor
LogPluginManager: Mounting plugin MacGraphicsSwitching
LogPluginManager: Mounting plugin GeometryMode
LogPluginManager: Mounting plugin MaterialAnalyzer
LogPluginManager: Mounting plugin MobileLauncherProfileWizard
LogPluginManager: Mounting plugin PluginBrowser
LogPluginManager: Mounting plugin SpeedTreeImporter
LogPluginManager: Mounting plugin DatasmithContent
LogPluginManager: Mounting plugin AlembicImporter
LogPluginManager: Mounting plugin VariantManagerContent
LogPluginManager: Mounting plugin BackChannel
LogPluginManager: Mounting plugin AutomationUtils
LogPluginManager: Mounting plugin LuminPlatformFeatures
LogPluginManager: Mounting plugin ChaosCloth
LogPluginManager: Mounting plugin MagicLeap
LogPluginManager: Mounting plugin ChaosClothEditor
LogPluginManager: Mounting plugin ChaosEditor
LogPluginManager: Mounting plugin ChaosNiagara
LogPluginManager: Mounting plugin ChaosSolverPlugin
LogPluginManager: Mounting plugin MagicLeapLightEstimation
LogPluginManager: Mounting plugin CharacterAI
LogPluginManager: Mounting plugin MagicLeapMedia
LogPluginManager: Mounting plugin MagicLeapPassableWorld
LogPluginManager: Mounting plugin AndroidMedia
LogPluginManager: Mounting plugin MLSDK
LogPluginManager: Mounting plugin AvfMedia
LogPluginManager: Mounting plugin GeometryCache
LogPluginManager: Mounting plugin GeometryCollectionPlugin
LogPluginManager: Mounting plugin GeometryProcessing
LogPluginManager: Mounting plugin MediaCompositing
LogPluginManager: Mounting plugin ImgMedia
LogPluginManager: Mounting plugin MediaPlayerEditor
LogPluginManager: Mounting plugin WebMMedia
LogPluginManager: Mounting plugin WmfMedia
LogPluginManager: Mounting plugin Niagara
LogPluginManager: Mounting plugin MotoSynth
LogPluginManager: Mounting plugin PlatformCrypto
LogPluginManager: Mounting plugin ProxyLODPlugin
LogPluginManager: Mounting plugin PlanarCut
LogPluginManager: Mounting plugin SkeletalReduction
LogPluginManager: Mounting plugin ActorSequence
LogPluginManager: Mounting plugin LevelSequenceEditor
LogPluginManager: Mounting plugin TcpMessaging
LogPluginManager: Mounting plugin UdpMessaging
LogPluginManager: Mounting plugin TemplateSequence
LogPluginManager: Mounting plugin MatineeToLevelSequence
LogPluginManager: Mounting plugin OnlineSubsystem
LogPluginManager: Mounting plugin OnlineSubsystemNull
LogPluginManager: Mounting plugin OnlineSubsystemUtils
LogPluginManager: Mounting plugin LauncherChunkInstaller
LogPluginManager: Mounting plugin ActorLayerUtilities
LogPluginManager: Mounting plugin AndroidMoviePlayer
LogPluginManager: Mounting plugin AndroidDeviceProfileSelector
LogPluginManager: Mounting plugin AndroidPermission
LogPluginManager: Mounting plugin AppleMoviePlayer
LogPluginManager: Mounting plugin AppleImageUtils
LogPluginManager: Mounting plugin ArchVisCharacter
LogPluginManager: Mounting plugin AudioCapture
LogPluginManager: Mounting plugin AssetTags
LogPluginManager: Mounting plugin ChunkDownloader
LogPluginManager: Mounting plugin CableComponent
LogPluginManager: Mounting plugin AudioSynesthesia
LogPluginManager: Mounting plugin CustomMeshComponent
LogPluginManager: Mounting plugin EditableMesh
LogPluginManager: Mounting plugin GoogleCloudMessaging
LogPluginManager: Mounting plugin ExampleDeviceProfileSelector
LogPluginManager: Mounting plugin GooglePAD
LogPluginManager: Mounting plugin LinuxDeviceProfileSelector
LogPluginManager: Mounting plugin LocationServicesBPLibrary
LogPluginManager: Mounting plugin IOSDeviceProfileSelector
LogPluginManager: Mounting plugin MobilePatchingUtils
LogPluginManager: Mounting plugin PhysXVehicles
LogPluginManager: Mounting plugin PostSplashScreen
LogPluginManager: Mounting plugin PropertyAccessEditor
LogPluginManager: Mounting plugin ProceduralMeshComponent
LogPluginManager: Mounting plugin SoundFields
LogPluginManager: Mounting plugin RuntimePhysXCooking
LogPluginManager: Mounting plugin SignificanceManager
LogPluginManager: Mounting plugin Synthesis
LogPluginManager: Mounting plugin WebMMoviePlayer
LogPluginManager: Mounting plugin WindowsMoviePlayer
LogPluginManager: Mounting plugin ScreenshotTools
LogPluginManager: Mounting plugin AISupport
LogPluginManager: Mounting plugin EnvironmentQueryEditor
LogPluginManager: Mounting plugin ContentBrowserAssetDataSource
LogPluginManager: Mounting plugin ContentBrowserClassDataSource
LogPluginManager: Mounting plugin OnlineSubsystemGooglePlay
LogPluginManager: Mounting plugin OnlineSubsystemIOS
LogPluginManager: Mounting plugin OculusVR
LogPluginManager: Mounting plugin SteamVR
LogPluginManager: Mounting plugin OpenVRExpansionPlugin
LogPluginManager: Mounting plugin VRExpansionPlugin
LogXGEController: Cannot use XGE Controller as Incredibuild is not installed on this machine.
LogInit: Using libcurl 7.55.1-DEV
LogInit:  - built for x86_64-pc-win32
LogInit:  - supports SSL with OpenSSL/1.1.1
LogInit:  - supports HTTP deflate (compression) using libz 1.2.8
LogInit:  - other features:
LogInit:      CURL_VERSION_SSL
LogInit:      CURL_VERSION_LIBZ
LogInit:      CURL_VERSION_IPV6
LogInit:      CURL_VERSION_ASYNCHDNS
LogInit:      CURL_VERSION_LARGEFILE
LogInit:      CURL_VERSION_IDN
LogInit:  CurlRequestOptions (configurable via config and command line):
LogInit:  - bVerifyPeer = true  - Libcurl will verify peer certificate
LogInit:  - bUseHttpProxy = false  - Libcurl will NOT use HTTP proxy
LogInit:  - bDontReuseConnections = false  - Libcurl will reuse connections
LogInit:  - MaxHostConnections = 16  - Libcurl will limit the number of connections to a host
LogInit:  - LocalHostAddr = Default
LogInit:  - BufferSize = 65536
LogOnline: OSS: Creating online subsystem instance for: NULL
LogInit: WinSock: version 1.1 (2.2), MaxSocks=32767, MaxUdp=65467
LogOnline: OSS: TryLoadSubsystemAndSetDefault: Loaded subsystem for module [NULL]
LogOculusPluginWrapper: OculusPlugin initialized successfully
LogHMD: FOculusHMDModule PreInit successfully
LogInit: Build: ++UE4+Release-4.26-CL-15973114
LogInit: Engine Version: 4.26.2-15973114+++UE4+Release-4.26
LogInit: Compatible Engine Version: 4.26.0-14830424+++UE4+Release-4.26
LogInit: Net CL: 14830424
LogInit: OS: Windows 10 (Release 2009) (), CPU: AMD Ryzen 7 1700X Eight-Core Processor         , GPU: NVIDIA GeForce GTX 1070
LogInit: Compiled (64-bit): Apr 12 2021 06:14:10
LogInit: Compiled with Visual C++: 19.24.28315.00
LogInit: Build Configuration: Development
LogInit: Branch Name: ++UE4+Release-4.26
LogInit: Command Line:  -EpicPortal -epicusername=carau -epicuserid=3e7c0d3019e547ce8e394db363b2f36d -epiclocale=en -epicsandboxid=ue
LogInit: Base Directory: C:/qProgram Files/Epic Games/UE_4.26/Engine/Binaries/Win64/
LogInit: Allocator: TBB
LogInit: Installed Engine Build: 1
LogDevObjectVersion: Number of dev versions registered: 29
LogDevObjectVersion:   Dev-Blueprints (B0D832E4-1F89-4F0D-ACCF-7EB736FD4AA2): 10
LogDevObjectVersion:   Dev-Build (E1C64328-A22C-4D53-A36C-8E866417BD8C): 0
LogDevObjectVersion:   Dev-Core (375EC13C-06E4-48FB-B500-84F0262A717E): 4
LogDevObjectVersion:   Dev-Editor (E4B068ED-F494-42E9-A231-DA0B2E46BB41): 40
LogDevObjectVersion:   Dev-Framework (CFFC743F-43B0-4480-9391-14DF171D2073): 37
LogDevObjectVersion:   Dev-Mobile (B02B49B5-BB20-44E9-A304-32B752E40360): 3
LogDevObjectVersion:   Dev-Networking (A4E4105C-59A1-49B5-A7C5-40C4547EDFEE): 0
LogDevObjectVersion:   Dev-Online (39C831C9-5AE6-47DC-9A44-9C173E1C8E7C): 0
LogDevObjectVersion:   Dev-Physics (78F01B33-EBEA-4F98-B9B4-84EACCB95AA2): 4
LogDevObjectVersion:   Dev-Platform (6631380F-2D4D-43E0-8009-CF276956A95A): 0
LogDevObjectVersion:   Dev-Rendering (12F88B9F-8875-4AFC-A67C-D90C383ABD29): 44
LogDevObjectVersion:   Dev-Sequencer (7B5AE74C-D270-4C10-A958-57980B212A5A): 12
LogDevObjectVersion:   Dev-VR (D7296918-1DD6-4BDD-9DE2-64A83CC13884): 3
LogDevObjectVersion:   Dev-LoadTimes (C2A15278-BFE7-4AFE-6C17-90FF531DF755): 1
LogDevObjectVersion:   Private-Geometry (6EACA3D4-40EC-4CC1-B786-8BED09428FC5): 3
LogDevObjectVersion:   Dev-AnimPhys (29E575DD-E0A3-4627-9D10-D276232CDCEA): 17
LogDevObjectVersion:   Dev-Anim (AF43A65D-7FD3-4947-9873-3E8ED9C1BB05): 15
LogDevObjectVersion:   Dev-ReflectionCapture (6B266CEC-1EC7-4B8F-A30B-E4D90942FC07): 1
LogDevObjectVersion:   Dev-Automation (0DF73D61-A23F-47EA-B727-89E90C41499A): 1
LogDevObjectVersion:   FortniteMain (601D1886-AC64-4F84-AA16-D3DE0DEAC7D6): 43
LogDevObjectVersion:   FortniteRelease (E7086368-6B23-4C58-8439-1B7016265E91): 1
LogDevObjectVersion:   Dev-Enterprise (9DFFBCD6-494F-0158-E221-12823C92A888): 10
LogDevObjectVersion:   Dev-Niagara (F2AED0AC-9AFE-416F-8664-AA7FFA26D6FC): 1
LogDevObjectVersion:   Dev-Destruction (174F1F0B-B4C6-45A5-B13F-2EE8D0FB917D): 10
LogDevObjectVersion:   Dev-Physics-Ext (35F94A83-E258-406C-A318-09F59610247C): 40
LogDevObjectVersion:   Dev-PhysicsMaterial-Chaos (B68FC16E-8B1B-42E2-B453-215C058844FE): 1
LogDevObjectVersion:   Dev-CineCamera (B2E18506-4273-CFC2-A54E-F4BB758BBA07): 1
LogDevObjectVersion:   Dev-VirtualProduction (64F58936-FD1B-42BA-BA96-7289D5D0FA4E): 1
LogDevObjectVersion:   Dev-MediaFramework (6F0ED827-A609-4895-9C91-998D90180EA4): 2
LogInit: Presizing for max 25165824 objects, including 0 objects not considered by GC, pre-allocating 0 bytes for permanent pool.
LogConfig: Applying CVar settings from Section [/Script/Engine.StreamingSettings] File [D:/Unreal Projects/VRRobo/Saved/Config/Windows/Engine.ini]
LogConfig: Setting CVar [[s.MinBulkDataSizeForAsyncLoading:131072]]
LogConfig: Setting CVar [[s.AsyncLoadingThreadEnabled:0]]
LogConfig: Setting CVar [[s.EventDrivenLoaderEnabled:1]]
LogConfig: Setting CVar [[s.WarnIfTimeLimitExceeded:0]]
LogConfig: Setting CVar [[s.TimeLimitExceededMultiplier:1.5]]
LogConfig: Setting CVar [[s.TimeLimitExceededMinTime:0.005]]
LogConfig: Setting CVar [[s.UseBackgroundLevelStreaming:1]]
LogConfig: Setting CVar [[s.PriorityAsyncLoadingExtraTime:15.0]]
LogConfig: Setting CVar [[s.LevelStreamingActorsUpdateTimeLimit:5.0]]
LogConfig: Setting CVar [[s.PriorityLevelStreamingActorsUpdateExtraTime:5.0]]
LogConfig: Setting CVar [[s.LevelStreamingComponentsRegistrationGranularity:10]]
LogConfig: Setting CVar [[s.UnregisterComponentsTimeLimit:1.0]]
LogConfig: Setting CVar [[s.LevelStreamingComponentsUnregistrationGranularity:5]]
LogConfig: Setting CVar [[s.FlushStreamingOnExit:1]]
LogInit: Object subsystem initialized
LogConfig: Setting CVar [[con.DebugEarlyDefault:1]]
LogConfig: Setting CVar [[r.setres:1280x720]]
[2021.10.05-19.04.37:766][  0]LogConfig: Setting CVar [[r.VSync:0]]
[2021.10.05-19.04.37:766][  0]LogConfig: Setting CVar [[r.RHICmdBypass:0]]
[2021.10.05-19.04.37:766][  0]LogConfig: Applying CVar settings from Section [/Script/Engine.RendererSettings] File [D:/Unreal Projects/VRRobo/Saved/Config/Windows/Engine.ini]
[2021.10.05-19.04.37:766][  0]LogConfig: Setting CVar [[r.GPUCrashDebugging:0]]
[2021.10.05-19.04.37:766][  0]LogConfig: Applying CVar settings from Section [/Script/Engine.RendererOverrideSettings] File [D:/Unreal Projects/VRRobo/Saved/Config/Windows/Engine.ini]
[2021.10.05-19.04.37:766][  0]LogConfig: Applying CVar settings from Section [/Script/Engine.StreamingSettings] File [D:/Unreal Projects/VRRobo/Saved/Config/Windows/Engine.ini]
[2021.10.05-19.04.37:766][  0]LogConfig: Setting CVar [[s.MinBulkDataSizeForAsyncLoading:131072]]
[2021.10.05-19.04.37:766][  0]LogConfig: Setting CVar [[s.AsyncLoadingThreadEnabled:0]]
[2021.10.05-19.04.37:766][  0]LogConfig: Setting CVar [[s.EventDrivenLoaderEnabled:1]]
[2021.10.05-19.04.37:766][  0]LogConfig: Setting CVar [[s.WarnIfTimeLimitExceeded:0]]
[2021.10.05-19.04.37:766][  0]LogConfig: Setting CVar [[s.TimeLimitExceededMultiplier:1.5]]
[2021.10.05-19.04.37:766][  0]LogConfig: Setting CVar [[s.TimeLimitExceededMinTime:0.005]]
[2021.10.05-19.04.37:766][  0]LogConfig: Setting CVar [[s.UseBackgroundLevelStreaming:1]]
[2021.10.05-19.04.37:766][  0]LogConfig: Setting CVar [[s.PriorityAsyncLoadingExtraTime:15.0]]
[2021.10.05-19.04.37:766][  0]LogConfig: Setting CVar [[s.LevelStreamingActorsUpdateTimeLimit:5.0]]
[2021.10.05-19.04.37:766][  0]LogConfig: Setting CVar [[s.PriorityLevelStreamingActorsUpdateExtraTime:5.0]]
[2021.10.05-19.04.37:766][  0]LogConfig: Setting CVar [[s.LevelStreamingComponentsRegistrationGranularity:10]]
[2021.10.05-19.04.37:766][  0]LogConfig: Setting CVar [[s.UnregisterComponentsTimeLimit:1.0]]
[2021.10.05-19.04.37:766][  0]LogConfig: Setting CVar [[s.LevelStreamingComponentsUnregistrationGranularity:5]]
[2021.10.05-19.04.37:766][  0]LogConfig: Setting CVar [[s.FlushStreamingOnExit:1]]
[2021.10.05-19.04.37:766][  0]LogConfig: Applying CVar settings from Section [/Script/Engine.GarbageCollectionSettings] File [D:/Unreal Projects/VRRobo/Saved/Config/Windows/Engine.ini]
[2021.10.05-19.04.37:766][  0]LogConfig: Setting CVar [[gc.MaxObjectsNotConsideredByGC:1]]
[2021.10.05-19.04.37:766][  0]LogConfig: Setting CVar [[gc.SizeOfPermanentObjectPool:0]]
[2021.10.05-19.04.37:766][  0]LogConfig: Setting CVar [[gc.FlushStreamingOnGC:0]]
[2021.10.05-19.04.37:766][  0]LogConfig: Setting CVar [[gc.NumRetriesBeforeForcingGC:10]]
[2021.10.05-19.04.37:766][  0]LogConfig: Setting CVar [[gc.AllowParallelGC:1]]
[2021.10.05-19.04.37:766][  0]LogConfig: Setting CVar [[gc.TimeBetweenPurgingPendingKillObjects:61.1]]
[2021.10.05-19.04.37:766][  0]LogConfig: Setting CVar [[gc.MaxObjectsInEditor:25165824]]
[2021.10.05-19.04.37:766][  0]LogConfig: Setting CVar [[gc.IncrementalBeginDestroyEnabled:1]]
[2021.10.05-19.04.37:766][  0]LogConfig: Setting CVar [[gc.CreateGCClusters:1]]
[2021.10.05-19.04.37:766][  0]LogConfig: Setting CVar [[gc.MinGCClusterSize:5]]
[2021.10.05-19.04.37:766][  0]LogConfig: Setting CVar [[gc.ActorClusteringEnabled:0]]
[2021.10.05-19.04.37:766][  0]LogConfig: Setting CVar [[gc.BlueprintClusteringEnabled:0]]
[2021.10.05-19.04.37:766][  0]LogConfig: Setting CVar [[gc.UseDisregardForGCOnDedicatedServers:0]]
[2021.10.05-19.04.37:766][  0]LogConfig: Setting CVar [[gc.MultithreadedDestructionEnabled:1]]
[2021.10.05-19.04.37:766][  0]LogConfig: Applying CVar settings from Section [/Script/Engine.NetworkSettings] File [D:/Unreal Projects/VRRobo/Saved/Config/Windows/Engine.ini]
[2021.10.05-19.04.37:766][  0]LogConfig: Applying CVar settings from Section [/Script/UnrealEd.CookerSettings] File [D:/Unreal Projects/VRRobo/Saved/Config/Windows/Engine.ini]
[2021.10.05-19.04.37:782][  0]LogConfig: Applying CVar settings from Section [ViewDistanceQuality@3] File [D:/Unreal Projects/VRRobo/Saved/Config/Windows/Scalability.ini]
[2021.10.05-19.04.37:782][  0]LogConfig: Setting CVar [[r.SkeletalMeshLODBias:0]]
[2021.10.05-19.04.37:782][  0]LogConfig: Setting CVar [[r.ViewDistanceScale:1.0]]
[2021.10.05-19.04.37:782][  0]LogConfig: Applying CVar settings from Section [AntiAliasingQuality@3] File [D:/Unreal Projects/VRRobo/Saved/Config/Windows/Scalability.ini]
[2021.10.05-19.04.37:782][  0]LogConfig: Setting CVar [[r.PostProcessAAQuality:4]]
[2021.10.05-19.04.37:782][  0]LogConfig: Applying CVar settings from Section [ShadowQuality@3] File [D:/Unreal Projects/VRRobo/Saved/Config/Windows/Scalability.ini]
[2021.10.05-19.04.37:782][  0]LogConfig: Setting CVar [[r.LightFunctionQuality:1]]
[2021.10.05-19.04.37:782][  0]LogConfig: Setting CVar [[r.ShadowQuality:5]]
[2021.10.05-19.04.37:782][  0]LogConfig: Setting CVar [[r.Shadow.CSM.MaxCascades:10]]
[2021.10.05-19.04.37:782][  0]LogConfig: Setting CVar [[r.Shadow.MaxResolution:2048]]
[2021.10.05-19.04.37:782][  0]LogConfig: Setting CVar [[r.Shadow.MaxCSMResolution:2048]]
[2021.10.05-19.04.37:782][  0]LogConfig: Setting CVar [[r.Shadow.RadiusThreshold:0.01]]
[2021.10.05-19.04.37:782][  0]LogConfig: Setting CVar [[r.Shadow.DistanceScale:1.0]]
[2021.10.05-19.04.37:782][  0]LogConfig: Setting CVar [[r.Shadow.CSM.TransitionScale:1.0]]
[2021.10.05-19.04.37:782][  0]LogConfig: Setting CVar [[r.Shadow.PreShadowResolutionFactor:1.0]]
[2021.10.05-19.04.37:782][  0]LogConfig: Setting CVar [[r.DistanceFieldShadowing:1]]
[2021.10.05-19.04.37:782][  0]LogConfig: Setting CVar [[r.DistanceFieldAO:1]]
[2021.10.05-19.04.37:782][  0]LogConfig: Setting CVar [[r.AOQuality:2]]
[2021.10.05-19.04.37:782][  0]LogConfig: Setting CVar [[r.VolumetricFog:1]]
[2021.10.05-19.04.37:782][  0]LogConfig: Setting CVar [[r.VolumetricFog.GridPixelSize:8]]
[2021.10.05-19.04.37:782][  0]LogConfig: Setting CVar [[r.VolumetricFog.GridSizeZ:128]]
[2021.10.05-19.04.37:782][  0]LogConfig: Setting CVar [[r.VolumetricFog.HistoryMissSupersampleCount:4]]
[2021.10.05-19.04.37:782][  0]LogConfig: Setting CVar [[r.LightMaxDrawDistanceScale:1]]
[2021.10.05-19.04.37:782][  0]LogConfig: Setting CVar [[r.CapsuleShadows:1]]
[2021.10.05-19.04.37:782][  0]LogConfig: Applying CVar settings from Section [PostProcessQuality@3] File [D:/Unreal Projects/VRRobo/Saved/Config/Windows/Scalability.ini]
[2021.10.05-19.04.37:782][  0]LogConfig: Setting CVar [[r.MotionBlurQuality:4]]
[2021.10.05-19.04.37:782][  0]LogConfig: Setting CVar [[r.AmbientOcclusionMipLevelFactor:0.4]]
[2021.10.05-19.04.37:782][  0]LogConfig: Setting CVar [[r.AmbientOcclusionMaxQuality:100]]
[2021.10.05-19.04.37:782][  0]LogConfig: Setting CVar [[r.AmbientOcclusionLevels:-1]]
[2021.10.05-19.04.37:782][  0]LogConfig: Setting CVar [[r.AmbientOcclusionRadiusScale:1.0]]
[2021.10.05-19.04.37:782][  0]LogConfig: Setting CVar [[r.DepthOfFieldQuality:2]]
[2021.10.05-19.04.37:782][  0]LogConfig: Setting CVar [[r.RenderTargetPoolMin:400]]
[2021.10.05-19.04.37:782][  0]LogConfig: Setting CVar [[r.LensFlareQuality:2]]
[2021.10.05-19.04.37:782][  0]LogConfig: Setting CVar [[r.SceneColorFringeQuality:1]]
[2021.10.05-19.04.37:782][  0]LogConfig: Setting CVar [[r.EyeAdaptationQuality:2]]
[2021.10.05-19.04.37:782][  0]LogConfig: Setting CVar [[r.BloomQuality:5]]
[2021.10.05-19.04.37:782][  0]LogConfig: Setting CVar [[r.FastBlurThreshold:100]]
[2021.10.05-19.04.37:782][  0]LogConfig: Setting CVar [[r.Upscale.Quality:3]]
[2021.10.05-19.04.37:782][  0]LogConfig: Setting CVar [[r.Tonemapper.GrainQuantization:1]]
[2021.10.05-19.04.37:782][  0]LogConfig: Setting CVar [[r.LightShaftQuality:1]]
[2021.10.05-19.04.37:782][  0]LogConfig: Setting CVar [[r.Filter.SizeScale:1]]
[2021.10.05-19.04.37:782][  0]LogConfig: Setting CVar [[r.Tonemapper.Quality:5]]
[2021.10.05-19.04.37:782][  0]LogConfig: Setting CVar [[r.DOF.Gather.AccumulatorQuality:1        ; higher gathering accumulator quality]]
[2021.10.05-19.04.37:782][  0]LogConfig: Setting CVar [[r.DOF.Gather.PostfilterMethod:1          ; Median3x3 postfilering method]]
[2021.10.05-19.04.37:782][  0]LogConfig: Setting CVar [[r.DOF.Gather.EnableBokehSettings:0       ; no bokeh simulation when gathering]]
[2021.10.05-19.04.37:782][  0]LogConfig: Setting CVar [[r.DOF.Gather.RingCount:4                 ; medium number of samples when gathering]]
[2021.10.05-19.04.37:782][  0]LogConfig: Setting CVar [[r.DOF.Scatter.ForegroundCompositing:1    ; additive foreground scattering]]
[2021.10.05-19.04.37:782][  0]LogConfig: Setting CVar [[r.DOF.Scatter.BackgroundCompositing:2    ; additive background scattering]]
[2021.10.05-19.04.37:782][  0]LogConfig: Setting CVar [[r.DOF.Scatter.EnableBokehSettings:1      ; bokeh simulation when scattering]]
[2021.10.05-19.04.37:782][  0]LogConfig: Setting CVar [[r.DOF.Scatter.MaxSpriteRatio:0.1         ; only a maximum of 10% of scattered bokeh]]
[2021.10.05-19.04.37:782][  0]LogConfig: Setting CVar [[r.DOF.Recombine.Quality:1                ; cheap slight out of focus]]
[2021.10.05-19.04.37:782][  0]LogConfig: Setting CVar [[r.DOF.Recombine.EnableBokehSettings:0    ; no bokeh simulation on slight out of focus]]
[2021.10.05-19.04.37:782][  0]LogConfig: Setting CVar [[r.DOF.TemporalAAQuality:1                ; more stable temporal accumulation]]
[2021.10.05-19.04.37:782][  0]LogConfig: Setting CVar [[r.DOF.Kernel.MaxForegroundRadius:0.025]]
[2021.10.05-19.04.37:782][  0]LogConfig: Setting CVar [[r.DOF.Kernel.MaxBackgroundRadius:0.025]]
[2021.10.05-19.04.37:782][  0]LogConfig: Applying CVar settings from Section [TextureQuality@3] File [D:/Unreal Projects/VRRobo/Saved/Config/Windows/Scalability.ini]
[2021.10.05-19.04.37:782][  0]LogConfig: Setting CVar [[r.Streaming.MipBias:0]]
[2021.10.05-19.04.37:782][  0]LogConfig: Setting CVar [[r.Streaming.AmortizeCPUToGPUCopy:0]]
[2021.10.05-19.04.37:782][  0]LogConfig: Setting CVar [[r.Streaming.MaxNumTexturesToStreamPerFrame:0]]
[2021.10.05-19.04.37:783][  0]LogConfig: Setting CVar [[r.Streaming.Boost:1]]
[2021.10.05-19.04.37:783][  0]LogConfig: Setting CVar [[r.MaxAnisotropy:8]]
[2021.10.05-19.04.37:783][  0]LogConfig: Setting CVar [[r.VT.MaxAnisotropy:8]]
[2021.10.05-19.04.37:783][  0]LogConfig: Setting CVar [[r.Streaming.LimitPoolSizeToVRAM:0]]
[2021.10.05-19.04.37:783][  0]LogConfig: Setting CVar [[r.Streaming.PoolSize:1000]]
[2021.10.05-19.04.37:783][  0]LogConfig: Setting CVar [[r.Streaming.MaxEffectiveScreenSize:0]]
[2021.10.05-19.04.37:783][  0]LogConfig: Applying CVar settings from Section [EffectsQuality@3] File [D:/Unreal Projects/VRRobo/Saved/Config/Windows/Scalability.ini]
[2021.10.05-19.04.37:783][  0]LogConfig: Setting CVar [[r.TranslucencyLightingVolumeDim:64]]
[2021.10.05-19.04.37:783][  0]LogConfig: Setting CVar [[r.RefractionQuality:2]]
[2021.10.05-19.04.37:783][  0]LogConfig: Setting CVar [[r.SSR.Quality:3]]
[2021.10.05-19.04.37:783][  0]LogConfig: Setting CVar [[r.SSR.HalfResSceneColor:0]]
[2021.10.05-19.04.37:783][  0]LogConfig: Setting CVar [[r.SceneColorFormat:4]]
[2021.10.05-19.04.37:783][  0]LogConfig: Setting CVar [[r.DetailMode:2]]
[2021.10.05-19.04.37:783][  0]LogConfig: Setting CVar [[r.TranslucencyVolumeBlur:1]]
[2021.10.05-19.04.37:783][  0]LogConfig: Setting CVar [[r.MaterialQualityLevel:1 ; High quality]]
[2021.10.05-19.04.37:783][  0]LogConfig: Setting CVar [[r.AnisotropicMaterials:1]]
[2021.10.05-19.04.37:783][  0]LogConfig: Setting CVar [[r.SSS.Scale:1]]
[2021.10.05-19.04.37:783][  0]LogConfig: Setting CVar [[r.SSS.SampleSet:2]]
[2021.10.05-19.04.37:783][  0]LogConfig: Setting CVar [[r.SSS.Quality:1]]
[2021.10.05-19.04.37:783][  0]LogConfig: Setting CVar [[r.SSS.HalfRes:0]]
[2021.10.05-19.04.37:783][  0]LogConfig: Setting CVar [[r.SSGI.Quality:3]]
[2021.10.05-19.04.37:783][  0]LogConfig: Setting CVar [[r.EmitterSpawnRateScale:1.0]]
[2021.10.05-19.04.37:783][  0]LogConfig: Setting CVar [[r.ParticleLightQuality:2]]
[2021.10.05-19.04.37:783][  0]LogConfig: Setting CVar [[r.SkyAtmosphere.AerialPerspectiveLUT.FastApplyOnOpaque:1 ; Always have FastSkyLUT 1 in this case to avoid wrong sky]]
[2021.10.05-19.04.37:783][  0]LogConfig: Setting CVar [[r.SkyAtmosphere.AerialPerspectiveLUT.SampleCountMaxPerSlice:4]]
[2021.10.05-19.04.37:783][  0]LogConfig: Setting CVar [[r.SkyAtmosphere.AerialPerspectiveLUT.DepthResolution:16.0]]
[2021.10.05-19.04.37:783][  0]LogConfig: Setting CVar [[r.SkyAtmosphere.FastSkyLUT:1]]
[2021.10.05-19.04.37:783][  0]LogConfig: Setting CVar [[r.SkyAtmosphere.FastSkyLUT.SampleCountMin:4.0]]
[2021.10.05-19.04.37:783][  0]LogConfig: Setting CVar [[r.SkyAtmosphere.FastSkyLUT.SampleCountMax:128.0]]
[2021.10.05-19.04.37:783][  0]LogConfig: Setting CVar [[r.SkyAtmosphere.SampleCountMin:4.0]]
[2021.10.05-19.04.37:783][  0]LogConfig: Setting CVar [[r.SkyAtmosphere.SampleCountMax:128.0]]
[2021.10.05-19.04.37:783][  0]LogConfig: Setting CVar [[r.SkyAtmosphere.TransmittanceLUT.UseSmallFormat:0]]
[2021.10.05-19.04.37:783][  0]LogConfig: Setting CVar [[r.SkyAtmosphere.TransmittanceLUT.SampleCount:10.0]]
[2021.10.05-19.04.37:783][  0]LogConfig: Setting CVar [[r.SkyAtmosphere.MultiScatteringLUT.SampleCount:15.0]]
[2021.10.05-19.04.37:783][  0]LogConfig: Applying CVar settings from Section [FoliageQuality@3] File [D:/Unreal Projects/VRRobo/Saved/Config/Windows/Scalability.ini]
[2021.10.05-19.04.37:783][  0]LogConfig: Setting CVar [[foliage.DensityScale:1.0]]
[2021.10.05-19.04.37:783][  0]LogConfig: Setting CVar [[grass.DensityScale:1.0]]
[2021.10.05-19.04.37:783][  0]LogConfig: Applying CVar settings from Section [ShadingQuality@3] File [D:/Unreal Projects/VRRobo/Saved/Config/Windows/Scalability.ini]
[2021.10.05-19.04.37:783][  0]LogConfig: Setting CVar [[r.HairStrands.SkyLighting.IntegrationType:2]]
[2021.10.05-19.04.37:783][  0]LogConfig: Setting CVar [[r.HairStrands.SkyAO.SampleCount:4]]
[2021.10.05-19.04.37:783][  0]LogConfig: Setting CVar [[r.HairStrands.Visibility.MSAA.SamplePerPixel:4]]
[2021.10.05-19.04.37:783][  0]LogInit: Selected Device Profile: [Windows]
[2021.10.05-19.04.37:783][  0]LogInit: Applying CVar settings loaded from the selected device profile: [Windows]
[2021.10.05-19.04.37:783][  0]LogHAL: Display: Platform has ~ 16 GB [17104928768 / 17179869184 / 16], which maps to Larger [LargestMinGB=32, LargerMinGB=12, DefaultMinGB=8, SmallerMinGB=6, SmallestMinGB=0)
[2021.10.05-19.04.37:783][  0]LogInit: Going up to parent DeviceProfile []
[2021.10.05-19.04.37:783][  0]LogConfig: Applying CVar settings from Section [ViewDistanceQuality@3] File [D:/Unreal Projects/VRRobo/Saved/Config/Windows/Scalability.ini]
[2021.10.05-19.04.37:783][  0]LogConfig: Setting CVar [[r.SkeletalMeshLODBias:0]]
[2021.10.05-19.04.37:783][  0]LogConfig: Setting CVar [[r.ViewDistanceScale:1.0]]
[2021.10.05-19.04.37:783][  0]LogConfig: Applying CVar settings from Section [AntiAliasingQuality@3] File [D:/Unreal Projects/VRRobo/Saved/Config/Windows/Scalability.ini]
[2021.10.05-19.04.37:783][  0]LogConfig: Setting CVar [[r.PostProcessAAQuality:4]]
[2021.10.05-19.04.37:783][  0]LogConfig: Applying CVar settings from Section [ShadowQuality@3] File [D:/Unreal Projects/VRRobo/Saved/Config/Windows/Scalability.ini]
[2021.10.05-19.04.37:783][  0]LogConfig: Setting CVar [[r.LightFunctionQuality:1]]
[2021.10.05-19.04.37:783][  0]LogConfig: Setting CVar [[r.ShadowQuality:5]]
[2021.10.05-19.04.37:783][  0]LogConfig: Setting CVar [[r.Shadow.CSM.MaxCascades:10]]
[2021.10.05-19.04.37:783][  0]LogConfig: Setting CVar [[r.Shadow.MaxResolution:2048]]
[2021.10.05-19.04.37:783][  0]LogConfig: Setting CVar [[r.Shadow.MaxCSMResolution:2048]]
[2021.10.05-19.04.37:783][  0]LogConfig: Setting CVar [[r.Shadow.RadiusThreshold:0.01]]
[2021.10.05-19.04.37:783][  0]LogConfig: Setting CVar [[r.Shadow.DistanceScale:1.0]]
[2021.10.05-19.04.37:783][  0]LogConfig: Setting CVar [[r.Shadow.CSM.TransitionScale:1.0]]
[2021.10.05-19.04.37:783][  0]LogConfig: Setting CVar [[r.Shadow.PreShadowResolutionFactor:1.0]]
[2021.10.05-19.04.37:783][  0]LogConfig: Setting CVar [[r.DistanceFieldShadowing:1]]
[2021.10.05-19.04.37:783][  0]LogConfig: Setting CVar [[r.DistanceFieldAO:1]]
[2021.10.05-19.04.37:783][  0]LogConfig: Setting CVar [[r.AOQuality:2]]
[2021.10.05-19.04.37:783][  0]LogConfig: Setting CVar [[r.VolumetricFog:1]]
[2021.10.05-19.04.37:783][  0]LogConfig: Setting CVar [[r.VolumetricFog.GridPixelSize:8]]
[2021.10.05-19.04.37:784][  0]LogConfig: Setting CVar [[r.VolumetricFog.GridSizeZ:128]]
[2021.10.05-19.04.37:784][  0]LogConfig: Setting CVar [[r.VolumetricFog.HistoryMissSupersampleCount:4]]
[2021.10.05-19.04.37:784][  0]LogConfig: Setting CVar [[r.LightMaxDrawDistanceScale:1]]
[2021.10.05-19.04.37:784][  0]LogConfig: Setting CVar [[r.CapsuleShadows:1]]
[2021.10.05-19.04.37:784][  0]LogConfig: Applying CVar settings from Section [PostProcessQuality@3] File [D:/Unreal Projects/VRRobo/Saved/Config/Windows/Scalability.ini]
[2021.10.05-19.04.37:784][  0]LogConfig: Setting CVar [[r.MotionBlurQuality:4]]
[2021.10.05-19.04.37:784][  0]LogConfig: Setting CVar [[r.AmbientOcclusionMipLevelFactor:0.4]]
[2021.10.05-19.04.37:784][  0]LogConfig: Setting CVar [[r.AmbientOcclusionMaxQuality:100]]
[2021.10.05-19.04.37:784][  0]LogConfig: Setting CVar [[r.AmbientOcclusionLevels:-1]]
[2021.10.05-19.04.37:784][  0]LogConfig: Setting CVar [[r.AmbientOcclusionRadiusScale:1.0]]
[2021.10.05-19.04.37:784][  0]LogConfig: Setting CVar [[r.DepthOfFieldQuality:2]]
[2021.10.05-19.04.37:784][  0]LogConfig: Setting CVar [[r.RenderTargetPoolMin:400]]
[2021.10.05-19.04.37:784][  0]LogConfig: Setting CVar [[r.LensFlareQuality:2]]
[2021.10.05-19.04.37:784][  0]LogConfig: Setting CVar [[r.SceneColorFringeQuality:1]]
[2021.10.05-19.04.37:784][  0]LogConfig: Setting CVar [[r.EyeAdaptationQuality:2]]
[2021.10.05-19.04.37:784][  0]LogConfig: Setting CVar [[r.BloomQuality:5]]
[2021.10.05-19.04.37:784][  0]LogConfig: Setting CVar [[r.FastBlurThreshold:100]]
[2021.10.05-19.04.37:784][  0]LogConfig: Setting CVar [[r.Upscale.Quality:3]]
[2021.10.05-19.04.37:784][  0]LogConfig: Setting CVar [[r.Tonemapper.GrainQuantization:1]]
[2021.10.05-19.04.37:784][  0]LogConfig: Setting CVar [[r.LightShaftQuality:1]]
[2021.10.05-19.04.37:784][  0]LogConfig: Setting CVar [[r.Filter.SizeScale:1]]
[2021.10.05-19.04.37:784][  0]LogConfig: Setting CVar [[r.Tonemapper.Quality:5]]
[2021.10.05-19.04.37:784][  0]LogConfig: Setting CVar [[r.DOF.Gather.AccumulatorQuality:1        ; higher gathering accumulator quality]]
[2021.10.05-19.04.37:784][  0]LogConfig: Setting CVar [[r.DOF.Gather.PostfilterMethod:1          ; Median3x3 postfilering method]]
[2021.10.05-19.04.37:784][  0]LogConfig: Setting CVar [[r.DOF.Gather.EnableBokehSettings:0       ; no bokeh simulation when gathering]]
[2021.10.05-19.04.37:784][  0]LogConfig: Setting CVar [[r.DOF.Gather.RingCount:4                 ; medium number of samples when gathering]]
[2021.10.05-19.04.37:784][  0]LogConfig: Setting CVar [[r.DOF.Scatter.ForegroundCompositing:1    ; additive foreground scattering]]
[2021.10.05-19.04.37:784][  0]LogConfig: Setting CVar [[r.DOF.Scatter.BackgroundCompositing:2    ; additive background scattering]]
[2021.10.05-19.04.37:784][  0]LogConfig: Setting CVar [[r.DOF.Scatter.EnableBokehSettings:1      ; bokeh simulation when scattering]]
[2021.10.05-19.04.37:784][  0]LogConfig: Setting CVar [[r.DOF.Scatter.MaxSpriteRatio:0.1         ; only a maximum of 10% of scattered bokeh]]
[2021.10.05-19.04.37:784][  0]LogConfig: Setting CVar [[r.DOF.Recombine.Quality:1                ; cheap slight out of focus]]
[2021.10.05-19.04.37:784][  0]LogConfig: Setting CVar [[r.DOF.Recombine.EnableBokehSettings:0    ; no bokeh simulation on slight out of focus]]
[2021.10.05-19.04.37:784][  0]LogConfig: Setting CVar [[r.DOF.TemporalAAQuality:1                ; more stable temporal accumulation]]
[2021.10.05-19.04.37:784][  0]LogConfig: Setting CVar [[r.DOF.Kernel.MaxForegroundRadius:0.025]]
[2021.10.05-19.04.37:784][  0]LogConfig: Setting CVar [[r.DOF.Kernel.MaxBackgroundRadius:0.025]]
[2021.10.05-19.04.37:784][  0]LogConfig: Applying CVar settings from Section [TextureQuality@3] File [D:/Unreal Projects/VRRobo/Saved/Config/Windows/Scalability.ini]
[2021.10.05-19.04.37:784][  0]LogConfig: Setting CVar [[r.Streaming.MipBias:0]]
[2021.10.05-19.04.37:784][  0]LogConfig: Setting CVar [[r.Streaming.AmortizeCPUToGPUCopy:0]]
[2021.10.05-19.04.37:784][  0]LogConfig: Setting CVar [[r.Streaming.MaxNumTexturesToStreamPerFrame:0]]
[2021.10.05-19.04.37:784][  0]LogConfig: Setting CVar [[r.Streaming.Boost:1]]
[2021.10.05-19.04.37:784][  0]LogConfig: Setting CVar [[r.MaxAnisotropy:8]]
[2021.10.05-19.04.37:784][  0]LogConfig: Setting CVar [[r.VT.MaxAnisotropy:8]]
[2021.10.05-19.04.37:784][  0]LogConfig: Setting CVar [[r.Streaming.LimitPoolSizeToVRAM:0]]
[2021.10.05-19.04.37:784][  0]LogConfig: Setting CVar [[r.Streaming.PoolSize:1000]]
[2021.10.05-19.04.37:784][  0]LogConfig: Setting CVar [[r.Streaming.MaxEffectiveScreenSize:0]]
[2021.10.05-19.04.37:784][  0]LogConfig: Applying CVar settings from Section [EffectsQuality@3] File [D:/Unreal Projects/VRRobo/Saved/Config/Windows/Scalability.ini]
[2021.10.05-19.04.37:784][  0]LogConfig: Setting CVar [[r.TranslucencyLightingVolumeDim:64]]
[2021.10.05-19.04.37:784][  0]LogConfig: Setting CVar [[r.RefractionQuality:2]]
[2021.10.05-19.04.37:784][  0]LogConfig: Setting CVar [[r.SSR.Quality:3]]
[2021.10.05-19.04.37:784][  0]LogConfig: Setting CVar [[r.SSR.HalfResSceneColor:0]]
[2021.10.05-19.04.37:784][  0]LogConfig: Setting CVar [[r.SceneColorFormat:4]]
[2021.10.05-19.04.37:784][  0]LogConfig: Setting CVar [[r.DetailMode:2]]
[2021.10.05-19.04.37:784][  0]LogConfig: Setting CVar [[r.TranslucencyVolumeBlur:1]]
[2021.10.05-19.04.37:784][  0]LogConfig: Setting CVar [[r.MaterialQualityLevel:1 ; High quality]]
[2021.10.05-19.04.37:784][  0]LogConfig: Setting CVar [[r.AnisotropicMaterials:1]]
[2021.10.05-19.04.37:784][  0]LogConfig: Setting CVar [[r.SSS.Scale:1]]
[2021.10.05-19.04.37:784][  0]LogConfig: Setting CVar [[r.SSS.SampleSet:2]]
[2021.10.05-19.04.37:784][  0]LogConfig: Setting CVar [[r.SSS.Quality:1]]
[2021.10.05-19.04.37:784][  0]LogConfig: Setting CVar [[r.SSS.HalfRes:0]]
[2021.10.05-19.04.37:784][  0]LogConfig: Setting CVar [[r.SSGI.Quality:3]]
[2021.10.05-19.04.37:784][  0]LogConfig: Setting CVar [[r.EmitterSpawnRateScale:1.0]]
[2021.10.05-19.04.37:784][  0]LogConfig: Setting CVar [[r.ParticleLightQuality:2]]
[2021.10.05-19.04.37:784][  0]LogConfig: Setting CVar [[r.SkyAtmosphere.AerialPerspectiveLUT.FastApplyOnOpaque:1 ; Always have FastSkyLUT 1 in this case to avoid wrong sky]]
[2021.10.05-19.04.37:784][  0]LogConfig: Setting CVar [[r.SkyAtmosphere.AerialPerspectiveLUT.SampleCountMaxPerSlice:4]]
[2021.10.05-19.04.37:784][  0]LogConfig: Setting CVar [[r.SkyAtmosphere.AerialPerspectiveLUT.DepthResolution:16.0]]
[2021.10.05-19.04.37:784][  0]LogConfig: Setting CVar [[r.SkyAtmosphere.FastSkyLUT:1]]
[2021.10.05-19.04.37:784][  0]LogConfig: Setting CVar [[r.SkyAtmosphere.FastSkyLUT.SampleCountMin:4.0]]
[2021.10.05-19.04.37:784][  0]LogConfig: Setting CVar [[r.SkyAtmosphere.FastSkyLUT.SampleCountMax:128.0]]
[2021.10.05-19.04.37:784][  0]LogConfig: Setting CVar [[r.SkyAtmosphere.SampleCountMin:4.0]]
[2021.10.05-19.04.37:784][  0]LogConfig: Setting CVar [[r.SkyAtmosphere.SampleCountMax:128.0]]
[2021.10.05-19.04.37:784][  0]LogConfig: Setting CVar [[r.SkyAtmosphere.TransmittanceLUT.UseSmallFormat:0]]
[2021.10.05-19.04.37:784][  0]LogConfig: Setting CVar [[r.SkyAtmosphere.TransmittanceLUT.SampleCount:10.0]]
[2021.10.05-19.04.37:784][  0]LogConfig: Setting CVar [[r.SkyAtmosphere.MultiScatteringLUT.SampleCount:15.0]]
[2021.10.05-19.04.37:785][  0]LogConfig: Applying CVar settings from Section [FoliageQuality@3] File [D:/Unreal Projects/VRRobo/Saved/Config/Windows/Scalability.ini]
[2021.10.05-19.04.37:785][  0]LogConfig: Setting CVar [[foliage.DensityScale:1.0]]
[2021.10.05-19.04.37:785][  0]LogConfig: Setting CVar [[grass.DensityScale:1.0]]
[2021.10.05-19.04.37:785][  0]LogConfig: Applying CVar settings from Section [ShadingQuality@3] File [D:/Unreal Projects/VRRobo/Saved/Config/Windows/Scalability.ini]
[2021.10.05-19.04.37:785][  0]LogConfig: Setting CVar [[r.HairStrands.SkyLighting.IntegrationType:2]]
[2021.10.05-19.04.37:785][  0]LogConfig: Setting CVar [[r.HairStrands.SkyAO.SampleCount:4]]
[2021.10.05-19.04.37:785][  0]LogConfig: Setting CVar [[r.HairStrands.Visibility.MSAA.SamplePerPixel:4]]
[2021.10.05-19.04.37:785][  0]LogConfig: Applying CVar settings from Section [Startup] File [../../../Engine/Config/ConsoleVariables.ini]
[2021.10.05-19.04.37:785][  0]LogConfig: Setting CVar [[net.UseAdaptiveNetUpdateFrequency:0]]
[2021.10.05-19.04.37:785][  0]LogConfig: Setting CVar [[p.chaos.AllowCreatePhysxBodies:1]]
[2021.10.05-19.04.37:785][  0]LogConfig: Setting CVar [[fx.SkipVectorVMBackendOptimizations:1]]
[2021.10.05-19.04.37:785][  0]LogConfig: Applying CVar settings from Section [ConsoleVariables] File [D:/Unreal Projects/VRRobo/Saved/Config/Windows/Engine.ini]
[2021.10.05-19.04.37:785][  0]LogConfig: Applying CVar settings from Section [ConsoleVariables] File [D:/Unreal Projects/VRRobo/Saved/Config/Windows/Editor.ini]
[2021.10.05-19.04.37:785][  0]LogInit: Computer: DESKTOP-KT4NSJ8
[2021.10.05-19.04.37:785][  0]LogInit: User: CRIS
[2021.10.05-19.04.37:785][  0]LogInit: CPU Page size=4096, Cores=8
[2021.10.05-19.04.37:785][  0]LogInit: High frequency timer resolution =10.000000 MHz
[2021.10.05-19.04.37:785][  0]LogMemory: Memory total: Physical=15.9GB (16GB approx)
[2021.10.05-19.04.37:785][  0]LogMemory: Platform Memory Stats for Windows
[2021.10.05-19.04.37:785][  0]LogMemory: Process Physical Memory: 145.04 MB used, 145.04 MB peak
[2021.10.05-19.04.37:785][  0]LogMemory: Process Virtual Memory: 117.23 MB used, 117.23 MB peak
[2021.10.05-19.04.37:785][  0]LogMemory: Physical Memory: 8750.05 MB used,  7562.48 MB free, 16312.53 MB total
[2021.10.05-19.04.37:785][  0]LogMemory: Virtual Memory: 134212256.00 MB used,  5468.74 MB free, 134217728.00 MB total
[2021.10.05-19.04.37:793][  0]LogWindows: WindowsPlatformFeatures enabled
[2021.10.05-19.04.37:833][  0]LogInit: Physics initialised using underlying interface: PhysX
[2021.10.05-19.04.37:834][  0]LogInit: Using OS detected language (en-US).
[2021.10.05-19.04.37:834][  0]LogInit: Using OS detected locale (en-US).
[2021.10.05-19.04.37:838][  0]LogTextLocalizationManager: No specific localization for 'en-US' exists, so the 'en' localization will be used.
[2021.10.05-19.04.38:051][  0]LogInit: Setting process to per monitor DPI aware
[2021.10.05-19.04.38:063][  0]LogWindowsTextInputMethodSystem: Display: IME system deactivated.
[2021.10.05-19.04.38:081][  0]LogSlate: New Slate User Created.  User Index 0, Is Virtual User: 0
[2021.10.05-19.04.38:081][  0]LogSlate: Slate User Registered.  User Index 0, Is Virtual User: 0
[2021.10.05-19.04.38:281][  0]LogD3D11RHI: D3D11 min allowed feature level: 11_0
[2021.10.05-19.04.38:281][  0]LogD3D11RHI: D3D11 max allowed feature level: 11_0
[2021.10.05-19.04.38:281][  0]LogD3D11RHI: D3D11 adapters:
[2021.10.05-19.04.38:366][  0]LogD3D11RHI:    0. 'NVIDIA GeForce GTX 1070' (Feature Level 11_0)
[2021.10.05-19.04.38:366][  0]LogD3D11RHI:       8088/0/8156 MB DedicatedVideo/DedicatedSystem/SharedSystem, Outputs:2, VendorId:0x10de
[2021.10.05-19.04.38:369][  0]LogD3D11RHI:    1. 'Microsoft Basic Render Driver' (Feature Level 11_0)
[2021.10.05-19.04.38:369][  0]LogD3D11RHI:       0/0/8156 MB DedicatedVideo/DedicatedSystem/SharedSystem, Outputs:0, VendorId:0x1414
[2021.10.05-19.04.38:369][  0]LogD3D11RHI: Chosen D3D11 Adapter: 0
[2021.10.05-19.04.38:378][  0]LogD3D11RHI: Creating new Direct3DDevice
[2021.10.05-19.04.38:379][  0]LogD3D11RHI:     GPU DeviceId: 0x1b81 (for the marketing name, search the web for "GPU Device Id")
[2021.10.05-19.04.38:379][  0]LogWindows: EnumDisplayDevices:
[2021.10.05-19.04.38:379][  0]LogWindows:    0. 'NVIDIA GeForce GTX 1070' (P:0 D:1)
[2021.10.05-19.04.38:379][  0]LogWindows:    1. 'NVIDIA GeForce GTX 1070' (P:1 D:1)
[2021.10.05-19.04.38:379][  0]LogWindows:    2. 'NVIDIA GeForce GTX 1070' (P:0 D:0)
[2021.10.05-19.04.38:379][  0]LogWindows:    3. 'NVIDIA GeForce GTX 1070' (P:0 D:0)
[2021.10.05-19.04.38:380][  0]LogWindows: DebugString: FoundDriverCount:4 
[2021.10.05-19.04.38:380][  0]LogD3D11RHI:     Adapter Name: NVIDIA GeForce GTX 1070
[2021.10.05-19.04.38:380][  0]LogD3D11RHI:   Driver Version: 456.71 (internal:27.21.14.5671, unified:456.71)
[2021.10.05-19.04.38:380][  0]LogD3D11RHI:      Driver Date: 9-30-2020
[2021.10.05-19.04.38:380][  0]LogRHI: Texture pool is 5661 MB (70% of 8088 MB)
[2021.10.05-19.04.38:450][  0]LogD3D11RHI: RHI has support for 64 bit atomics
[2021.10.05-19.04.38:450][  0]LogD3D11RHI: Async texture creation enabled
[2021.10.05-19.04.38:450][  0]LogD3D11RHI: Array index from any shader is supported
[2021.10.05-19.04.38:470][  0]LogD3D11RHI: GPU Timing Frequency: 1000.000000 (Debug: 2 1)
[2021.10.05-19.04.38:472][  0]LogRHI: GeForceNow SDK initialized: 1
[2021.10.05-19.04.38:784][  0]LogTargetPlatformManager: Display: Loaded TargetPlatform 'AllDesktop'
[2021.10.05-19.04.38:810][  0]LogTargetPlatformManager: Display: Loaded TargetPlatform 'Android'
[2021.10.05-19.04.38:810][  0]LogTargetPlatformManager: Display: Loaded TargetPlatform 'Android_ASTC'
[2021.10.05-19.04.38:810][  0]LogTargetPlatformManager: Display: Loaded TargetPlatform 'Android_DXT'
[2021.10.05-19.04.38:810][  0]LogTargetPlatformManager: Display: Loaded TargetPlatform 'Android_ETC2'
[2021.10.05-19.04.38:810][  0]LogTargetPlatformManager: Display: Loaded TargetPlatform 'AndroidClient'
[2021.10.05-19.04.38:810][  0]LogTargetPlatformManager: Display: Loaded TargetPlatform 'Android_ASTCClient'
[2021.10.05-19.04.38:810][  0]LogTargetPlatformManager: Display: Loaded TargetPlatform 'Android_DXTClient'
[2021.10.05-19.04.38:810][  0]LogTargetPlatformManager: Display: Loaded TargetPlatform 'Android_ETC2Client'
[2021.10.05-19.04.38:810][  0]LogTargetPlatformManager: Display: Loaded TargetPlatform 'Android_Multi'
[2021.10.05-19.04.38:810][  0]LogTargetPlatformManager: Display: Loaded TargetPlatform 'Android_MultiClient'
[2021.10.05-19.04.38:836][  0]LogTargetPlatformManager: Display: Loaded TargetPlatform 'IOSClient'
[2021.10.05-19.04.38:836][  0]LogTargetPlatformManager: Display: Loaded TargetPlatform 'IOS'
[2021.10.05-19.04.38:847][  0]LogTargetPlatformManager: Display: Loaded TargetPlatform 'Linux'
[2021.10.05-19.04.38:857][  0]LogTargetPlatformManager: Display: Loaded TargetPlatform 'LinuxNoEditor'
[2021.10.05-19.04.38:867][  0]LogTargetPlatformManager: Display: Loaded TargetPlatform 'LinuxClient'
[2021.10.05-19.04.38:877][  0]LogTargetPlatformManager: Display: Loaded TargetPlatform 'LinuxServer'
[2021.10.05-19.04.38:887][  0]LogTargetPlatformManager: Display: Loaded TargetPlatform 'LinuxAArch64NoEditor'
[2021.10.05-19.04.38:897][  0]LogTargetPlatformManager: Display: Loaded TargetPlatform 'LinuxAArch64Client'
[2021.10.05-19.04.38:907][  0]LogTargetPlatformManager: Display: Loaded TargetPlatform 'LinuxAArch64Server'
[2021.10.05-19.04.38:935][  0]LogTargetPlatformManager: Display: Loaded TargetPlatform 'Lumin'
[2021.10.05-19.04.38:935][  0]LogTargetPlatformManager: Display: Loaded TargetPlatform 'LuminClient'
[2021.10.05-19.04.38:945][  0]LogTargetPlatformManager: Display: Loaded TargetPlatform 'MacNoEditor'
[2021.10.05-19.04.38:955][  0]LogTargetPlatformManager: Display: Loaded TargetPlatform 'Mac'
[2021.10.05-19.04.38:965][  0]LogTargetPlatformManager: Display: Loaded TargetPlatform 'MacClient'
[2021.10.05-19.04.38:974][  0]LogTargetPlatformManager: Display: Loaded TargetPlatform 'MacServer'
[2021.10.05-19.04.38:992][  0]LogTargetPlatformManager: Display: Loaded TargetPlatform 'TVOSClient'
[2021.10.05-19.04.38:992][  0]LogTargetPlatformManager: Display: Loaded TargetPlatform 'TVOS'
[2021.10.05-19.04.39:002][  0]LogTargetPlatformManager: Display: Loaded TargetPlatform 'WindowsNoEditor'
[2021.10.05-19.04.39:012][  0]LogTargetPlatformManager: Display: Loaded TargetPlatform 'Windows'
[2021.10.05-19.04.39:022][  0]LogTargetPlatformManager: Display: Loaded TargetPlatform 'WindowsClient'
[2021.10.05-19.04.39:032][  0]LogTargetPlatformManager: Display: Loaded TargetPlatform 'WindowsServer'
[2021.10.05-19.04.39:032][  0]LogTargetPlatformManager: Display: Building Assets For Windows
[2021.10.05-19.04.39:040][  0]LogAudioDebug: Display: Lib vorbis DLL was dynamically loaded.
[2021.10.05-19.04.39:113][  0]LogRendererCore: Ray tracing is disabled. Reason: r.RayTracing=0.
[2021.10.05-19.04.39:113][  0]LogShaderCompilers: Guid format shader working directory is 20 characters bigger than the processId version (D:/Unreal Projects/VRRobo/Intermediate/Shaders/WorkingDirectory/7724/).
[2021.10.05-19.04.39:113][  0]LogShaderCompilers: Cleaned the shader compiler working directory 'C:/Users/CRIS/AppData/Local/Temp/UnrealShaderWorkingDir/DD773EB94C821F256061B9BB03F6D046/'.
[2021.10.05-19.04.39:113][  0]LogShaderCompilers: Cannot use XGE Shader Compiler as Incredibuild is not installed on this machine.
[2021.10.05-19.04.39:113][  0]LogShaderCompilers: Display: Using Local Shader Compiler.
[2021.10.05-19.04.39:998][  0]LogDerivedDataCache: Display: Max Cache Size: 512 MB
[2021.10.05-19.04.40:060][  0]LogDerivedDataCache: Loaded boot cache 0.06s 81MB C:/Users/CRIS/AppData/Local/UnrealEngine/4.26/DerivedDataCache/Boot.ddc.
[2021.10.05-19.04.40:060][  0]LogDerivedDataCache: Display: Loaded Boot cache: C:/Users/CRIS/AppData/Local/UnrealEngine/4.26/DerivedDataCache/Boot.ddc
[2021.10.05-19.04.40:060][  0]LogDerivedDataCache: FDerivedDataBackendGraph:  Pak pak cache file D:/Unreal Projects/VRRobo/DerivedDataCache/DDC.ddp not found, will not use a pak cache.
[2021.10.05-19.04.40:060][  0]LogDerivedDataCache: Unable to find inner node Pak for hierarchical cache Hierarchy.
[2021.10.05-19.04.40:060][  0]LogDerivedDataCache: FDerivedDataBackendGraph:  CompressedPak pak cache file D:/Unreal Projects/VRRobo/DerivedDataCache/Compressed.ddp not found, will not use a pak cache.
[2021.10.05-19.04.40:060][  0]LogDerivedDataCache: Unable to find inner node CompressedPak for hierarchical cache Hierarchy.
[2021.10.05-19.04.40:075][  0]LogDerivedDataCache: Display: Pak cache opened for reading ../../../Engine/DerivedDataCache/Compressed.ddp.
[2021.10.05-19.04.40:075][  0]LogDerivedDataCache: FDerivedDataBackendGraph:  EnterprisePak pak cache file ../../../Enterprise/DerivedDataCache/Compressed.ddp not found, will not use a pak cache.
[2021.10.05-19.04.40:075][  0]LogDerivedDataCache: Unable to find inner node EnterprisePak for hierarchical cache Hierarchy.
[2021.10.05-19.04.40:087][  0]LogDerivedDataCache: Speed tests for C:/Users/CRIS/AppData/Local/UnrealEngine/Common/DerivedDataCache took 0.01 seconds
[2021.10.05-19.04.40:087][  0]LogDerivedDataCache: Display: Performance to C:/Users/CRIS/AppData/Local/UnrealEngine/Common/DerivedDataCache: Latency=0.04ms. RandomReadSpeed=674.76MBs, RandomWriteSpeed=99.22MBs. Assigned SpeedClass 'Local'
[2021.10.05-19.04.40:088][  0]LogDerivedDataCache: Using Local data cache path C:/Users/CRIS/AppData/Local/UnrealEngine/Common/DerivedDataCache: Writable
[2021.10.05-19.04.40:088][  0]LogDerivedDataCache: Shared data cache path not found in *engine.ini, will not use an Shared cache.
[2021.10.05-19.04.40:088][  0]LogDerivedDataCache: Unable to find inner node Shared for hierarchical cache Hierarchy.
[2021.10.05-19.04.40:148][  0]LogSlate: Using FreeType 2.10.0
[2021.10.05-19.04.40:149][  0]LogSlate: SlateFontServices - WITH_FREETYPE: 1, WITH_HARFBUZZ: 1
[2021.10.05-19.04.40:178][  0]LogAssetRegistry: FAssetRegistry took 0.0040 seconds to start up
[2021.10.05-19.04.40:466][  0]LogInit: Selected Device Profile: [Windows]
[2021.10.05-19.04.40:466][  0]LogInit: Active device profile: [0000024967A93600][0000024965F6F300 49] Windows
[2021.10.05-19.04.40:466][  0]LogInit: Profiles: [0000024967A93600][0000024965F6F300 49] Windows, [0000024967A74B00][0000024967323480 49] WindowsNoEditor, [0000024967A90B00][000002496731F5C0 49] WindowsServer, [0000024967A77300][0000024967327700 49] WindowsClient, [0000024967A93200][000002496732B840 49] IOS, [0000024967A74F00][00000249673339C0 49] iPadAir, [0000024967A90E00][0000024967337B40 49] iPadAir2, [0000024967A34F00][000002496733E140 49] IPadPro, [0000024967A35000][000002496733A180 49] iPadAir3, [0000024967A93000][0000024967342300 49] iPadAir4, [0000024967A37E00][0000024967346480 49] iPadMini2, [0000024967A90900][000002496734A600 49] iPadMini3, [0000024967A36200][000002496734E780 49] iPadMini4, [0000024967A91100][0000024967352900 49] iPadMini5, [0000024967A76600][000002496735ABC0 49] iPhone6, [0000024967A76500][0000024967356C00 49] iPodTouch6, [0000024967A37500][0000024967362EC0 49] iPhone7, [0000024967A37400][000002496735EF00 49] iPodTouch7, [0000024967A77D00][0000024967367080 49] iPhone5S, [0000024967A34B00][000002496736B200 49] iPhone6Plus, [0000024967A75600][000002496736F380 49] iPhone6S, [0000024967A36400][0000024967373500 49] iPhone6SPlus, [0000024967A77500][000002496732F640 49] iPhone7Plus, [0000024967A37F00][0000024967377780 49] iPhoneSE, [0000024967A77800][000002496737B8C0 49] iPhone8, [0000024967A34500][000002496737FA00 49] iPhone8Plus, [0000024967A76000][0000024967387B80 49] iPhoneX, [0000024967A36100][000002496738BD00 49] iPhoneXS, [0000024967A75000][000002496738E1C0 49] iPhoneXSMax, [0000024967A35400][0000024967392340 49] iPhoneXR, [0000024967A74C00][00000249673964C0 49] iPhone11, [0000024967A35C00][000002496739A640 49] iPhone11Pro, [0000024967A74700][000002496739E7C0 49] iPhone11ProMax, [0000024967A35600][00000249673A2940 49] iPhoneSE2, [0000024967A74300][00000249673A6AC0 49] iPhone12Mini, [0000024967A35900][00000249673AAC40 49] iPhone12, [0000024967A74600][00000249673AEDC0 49] iPhone12Pro, [0000024967A35D00][00000249673B2F40 49] iPhone12ProMax, [0000024967A74A00][00000249673B70C0 49] iPadPro105, [0000024967A36300][00000249673BB240 49] iPadPro129, [0000024967A77600][00000249683D13C0 49] iPadPro97, [0000024967A35700][00000249683D5540 49] iPadPro2_129, [0000024967A75700][0000024967383680 49] iPad5, [0000024967A36800][00000249683D97C0 49] iPad6, [0000024967A76A00][00000249683DD900 49] iPad7, [0000024967A37A00][00000249683E1A40 49] iPad8, [0000024967A75E00][00000249683E9BC0 49] iPadPro11, [0000024967A36B00][00000249683EDD40 49] iPadPro2_11, [0000024967A75800][00000249683F0200 49] iPadPro3_129, [0000024967A35A00][00000249683F4380 49] iPadPro4_129, [0000024967A77B00][00000249683F8500 49] AppleTV, [0000024967A34400][00000249683FC680 49] AppleTV4K, [0000024967A76F00][0000024968400800 49] TVOS, [0000024967A35100][0000024968404980 49] Mac, [0000024967A75900][0000024968408B00 49] MacClient, [0000024967A34600][000002496840CC80 49] MacNoEditor, [0000024967A76100][0000024968410E00 49] MacServer, [0000024967A36700][0000024968414F80 49] Linux, [0000024967A91500][0000024968419100 49] LinuxAArch64, [0000024967B00800][000002496841D280 49] LinuxNoEditor, [0000024967A93400][0000024968421400 49] LinuxAArch64NoEditor, [0000024967B01100][0000024968425580 49] LinuxClient, [0000024967A92700][0000024968429700 49] LinuxAArch64Client, [0000024967B00400][00000249683E5840 49] LinuxServer, [0000024967A91D00][000002496842D980 49] LinuxAArch64Server, [0000024967B01700][0000024968431AC0 49] Android, [0000024967A92C00][0000024968439C40 49] Android_Low, [0000024967B00A00][000002496843C100 49] Android_Mid, [0000024967A92400][0000024968440280 49] Android_High, [0000024967B00B00][0000024968444400 49] Android_Default, [0000024967A92800][0000024968448580 49] Android_Adreno4xx, [0000024967A35F00][000002496844C700 49] Android_Adreno5xx_Low, [0000024967A90A00][0000024968450880 49] Android_Adreno5xx, [0000024967A37700][0000024968454A00 49] Android_Adreno6xx, [0000024967A90D00][0000024968458B80 49] Android_Adreno6xx_Vulkan, [0000024967A34A00][000002496845CD00 49] Android_Mali_T6xx, [0000024967A92A00][0000024968460E80 49] Android_Mali_T7xx, [0000024967A36E00][0000024968465000 49] Android_Mali_T8xx, [0000024967A93900][0000024968469180 49] Android_Mali_G71, [0000024967A36C00][000002496846D300 49] Android_Mali_G72, [0000024967A92000][0000024968471480 49] Android_Mali_G72_Vulkan, [0000024967A37300][0000024968475600 49] Android_Mali_G76, [0000024967A90800][0000024968479780 49] Android_Mali_G76_Vulkan, [0000024967A37100][00000249684358C0 49] Android_Mali_G77, [0000024967A93E00][000002496847DA00 49] Android_Mali_G77_Vulkan, [0000024967A35B00][0000024968481B40 49] Android_Vulkan_SM5, [0000024967A92D00][0000024968489CC0 49] Android_PowerVR_G6xxx, [0000024967A34700][000002496848C180 49] Android_PowerVR_GT7xxx, [0000024967A90200][0000024968490300 49] Android_PowerVR_GE8xxx, [0000024967A34900][0000024968494480 49] Android_PowerVR_GM9xxx, [0000024967A91E00][0000024968498600 49] Android_PowerVR_GM9xxx_Vulkan, [0000024967A36D00][000002496849C780 49] Android_TegraK1, [0000024967A92900][00000249684A0900 49] Android_Unknown_Vulkan, [0000024967A35500][00000249684A4A80 49] Lumin, [0000024967A91400][00000249684A8C00 49] Lumin_Desktop, [0000024967A36A00][00000249684ACD80 49] HoloLens, 
[2021.10.05-19.04.40:584][  0]LogMeshReduction: Using QuadricMeshReduction for automatic static mesh reduction
[2021.10.05-19.04.40:584][  0]LogMeshReduction: Using SimplygonMeshReduction for automatic skeletal mesh reduction
[2021.10.05-19.04.40:584][  0]LogMeshReduction: Using ProxyLODMeshReduction for automatic mesh merging
[2021.10.05-19.04.40:584][  0]LogMeshReduction: No distributed automatic mesh merging module available
[2021.10.05-19.04.40:584][  0]LogMeshMerging: No distributed automatic mesh merging module available
[2021.10.05-19.04.40:607][  0]LogNetVersion: VRRobo 1.0.0, NetCL: 14830424, EngineNetVer: 16, GameNetVer: 0 (Checksum: 684729084)
[2021.10.05-19.04.41:082][  0]LogHMD: PokeAHoleMaterial loaded successfully
[2021.10.05-19.04.41:115][  0]LogPackageLocalizationCache: Processed 22 localized package path(s) for 1 prioritized culture(s) in 0.032165 seconds
[2021.10.05-19.04.41:121][  0]LogUObjectArray: 16831 objects as part of root set at end of initial load.
[2021.10.05-19.04.41:121][  0]LogUObjectAllocator: 4209728 out of 0 bytes used by permanent object pool.
[2021.10.05-19.04.41:121][  0]LogUObjectArray: CloseDisregardForGC: 0/0 objects in disregard for GC pool
[2021.10.05-19.04.41:603][  0]LogTcpMessaging: Initializing TcpMessaging bridge
[2021.10.05-19.04.41:608][  0]LogUdpMessaging: Initializing bridge on interface 0.0.0.0:0 to multicast group 230.0.0.1:6666.
[2021.10.05-19.04.41:715][  0]SourceControl: Source control is disabled
[2021.10.05-19.04.41:715][  0]SourceControl: Source control is disabled
[2021.10.05-19.04.41:719][  0]SourceControl: Source control is disabled
[2021.10.05-19.04.41:725][  0]SourceControl: Source control is disabled
[2021.10.05-19.04.41:729][  0]SourceControl: Source control is disabled
[2021.10.05-19.04.41:737][  0]LogUProjectInfo: Found projects:
[2021.10.05-19.04.42:010][  0]LogAndroidPermission: UAndroidPermissionCallbackProxy::GetInstance
[2021.10.05-19.04.42:029][  0]LogAudioCaptureCore: Display: No Audio Capture implementations found. Audio input will be silent.
[2021.10.05-19.04.42:029][  0]LogAudioCaptureCore: Display: No Audio Capture implementations found. Audio input will be silent.
[2021.10.05-19.04.42:091][  0]LogCollectionManager: Loaded 0 collections in 0.000803 seconds
[2021.10.05-19.04.42:119][  0]LogFileCache: Scanning file cache for directory 'D:/Unreal Projects/VRRobo/Saved/Collections/' took 0.00s
[2021.10.05-19.04.42:119][  0]LogFileCache: Scanning file cache for directory 'D:/Unreal Projects/VRRobo/Content/Developers/CRIS/Collections/' took 0.00s
[2021.10.05-19.04.42:119][  0]LogFileCache: Scanning file cache for directory 'D:/Unreal Projects/VRRobo/Content/Collections/' took 0.00s
[2021.10.05-19.04.42:119][  0]LogOcInput: OculusInput pre-init called
[2021.10.05-19.04.42:393][  0]LogEngine: Initializing Engine...
[2021.10.05-19.04.42:394][  0]LogHMD: PokeAHoleMaterial loaded successfully
[2021.10.05-19.04.42:394][  0]LogHMD: Initializing OVRPlugin session
[2021.10.05-19.04.42:596][  0]LogHMD: Allocating Oculus 2688 x 1600 rendertarget swapchain
[2021.10.05-19.04.42:596][  0]LogHMD: Oculus plugin initialized. Version: 4.26.2-15973114+++UE4+Release-4.26, OVRPlugin: 1.51.0
[2021.10.05-19.04.42:597][  0]LogStats: UGameplayTagsManager::InitializeManager -  0.000 s
[2021.10.05-19.04.42:722][  0]LogInit: Initializing FReadOnlyCVARCache
[2021.10.05-19.04.42:730][  0]LogAIModule: Creating AISystem for world Untitled
[2021.10.05-19.04.42:743][  0]LogAudio: Display: Initializing Audio Device Manager...
[2021.10.05-19.04.42:748][  0]LogAudio: Display: Audio Device Manager Initialized
[2021.10.05-19.04.42:748][  0]LogAudio: Display: Creating Audio Device:                 Id: 1, Scope: Shared, Realtime: True
[2021.10.05-19.04.42:748][  0]LogAudioMixer: Display: Audio Mixer Platform Settings:
[2021.10.05-19.04.42:748][  0]LogAudioMixer: Display: 	Sample Rate:						  48000
[2021.10.05-19.04.42:748][  0]LogAudioMixer: Display: 	Callback Buffer Frame Size Requested: 1024
[2021.10.05-19.04.42:748][  0]LogAudioMixer: Display: 	Callback Buffer Frame Size To Use:	  1024
[2021.10.05-19.04.42:748][  0]LogAudioMixer: Display: 	Number of buffers to queue:			  2
[2021.10.05-19.04.42:748][  0]LogAudioMixer: Display: 	Max Channels (voices):				  32
[2021.10.05-19.04.42:748][  0]LogAudioMixer: Display: 	Number of Async Source Workers:		  0
[2021.10.05-19.04.42:748][  0]LogAudio: Display: AudioDevice MaxSources: 32
[2021.10.05-19.04.42:748][  0]LogAudio: Display: Using built-in audio occlusion.
[2021.10.05-19.04.42:748][  0]LogAudioMixer: Display: Initializing audio mixer.
[2021.10.05-19.04.42:765][  0]LogAudioMixer: Display: 0: FrontLeft
[2021.10.05-19.04.42:765][  0]LogAudioMixer: Display: 1: FrontRight
[2021.10.05-19.04.42:798][  0]LogAudioMixer: Display: Using Audio Device Speakers (Logitech USB Headset H540)
[2021.10.05-19.04.42:802][  0]LogAudioMixer: Display: Initializing Sound Submixes...
[2021.10.05-19.04.42:804][  0]LogAudioMixer: Display: Creating Master Submix 'MasterSubmixDefault'
[2021.10.05-19.04.42:804][  0]LogAudioMixer: Display: Creating Master Submix 'MasterReverbSubmixDefault'
[2021.10.05-19.04.42:805][  0]LogAudioMixer: Display: Creating Master Submix 'MasterEQSubmixDefault'
[2021.10.05-19.04.42:805][  0]LogAudioMixer: FMixerPlatformXAudio2::StartAudioStream() called
[2021.10.05-19.04.42:805][  0]LogAudioMixer: Display: Output buffers initialized: Frames=1024, Channels=2, Samples=2048
[2021.10.05-19.04.42:806][  0]LogAudioMixer: Display: Starting AudioMixerPlatformInterface::RunInternal()
[2021.10.05-19.04.42:806][  0]LogAudioMixer: Display: FMixerPlatformXAudio2::SubmitBuffer() called for the first time
[2021.10.05-19.04.42:806][  0]LogInit: FAudioDevice initialized.
[2021.10.05-19.04.42:807][  0]LogAudio: Display: Audio Device (ID: 1) registered with world 'Untitled'.
[2021.10.05-19.04.42:807][  0]LogNetVersion: Set ProjectVersion to 1.0.0.0. Version Checksum will be recalculated on next use.
[2021.10.05-19.04.42:901][  0]LogDerivedDataCache: Saved boot cache 0.09s 81MB C:/Users/CRIS/AppData/Local/UnrealEngine/4.26/DerivedDataCache/Boot.ddc.
[2021.10.05-19.04.42:902][  0]LogInit: Texture streaming: Enabled
[2021.10.05-19.04.42:916][  0]LogAnalytics: Display: [UEEditor.Rocket.Release] APIServer = https://datarouter.ol.epicgames.com/. AppVersion = 4.26.2-15973114+++UE4+Release-4.26
[2021.10.05-19.04.42:920][  0]LogEngineSessionManager: EngineSessionManager initialized
[2021.10.05-19.04.42:920][  0]LogEditorSessionSummary: Verbose: Initializing EditorSessionSummaryWriter for editor session tracking
[2021.10.05-19.04.42:922][  0]LogEditorSessionSummary: EditorSessionSummaryWriter initialized
[2021.10.05-19.04.42:952][  0]LogInit: Transaction tracking system initialized
[2021.10.05-19.04.42:976][  0]BlueprintLog: New page: Editor Load
[2021.10.05-19.04.43:055][  0]LocalizationService: Localization service is disabled
[2021.10.05-19.04.43:084][  0]TimingProfiler: Initialize
[2021.10.05-19.04.43:084][  0]TimingProfiler: OnSessionChanged
[2021.10.05-19.04.43:084][  0]LoadingProfiler: Initialize
[2021.10.05-19.04.43:084][  0]LoadingProfiler: OnSessionChanged
[2021.10.05-19.04.43:084][  0]NetworkingProfiler: Initialize
[2021.10.05-19.04.43:084][  0]NetworkingProfiler: OnSessionChanged
[2021.10.05-19.04.43:084][  0]MemoryProfiler: Initialize
[2021.10.05-19.04.43:084][  0]MemoryProfiler: OnSessionChanged
[2021.10.05-19.04.43:244][  0]LogCook: Display: CookSettings for Memory: MemoryMaxUsedVirtual 0MiB, MemoryMaxUsedPhysical 16384MiB, MemoryMinFreeVirtual 0MiB, MemoryMinFreePhysical 1024MiB
[2021.10.05-19.04.43:244][  0]LogCook: Display: Mobile HDR setting 1
[2021.10.05-19.04.43:420][  0]LogFileCache: Scanning file cache for directory 'D:/Unreal Projects/VRRobo/Content/' took 0.00s
[2021.10.05-19.04.43:581][  0]LogInit: Display: Engine is initialized. Leaving FEngineLoop::Init()
[2021.10.05-19.04.43:585][  0]SourceControl: Source control is disabled
[2021.10.05-19.04.43:585][  0]LogUnrealEdMisc: Loading editor; pre map load, took 6.981
[2021.10.05-19.04.43:585][  0]Cmd: MAP LOAD FILE="../../../Engine/Content/Maps/Templates/Template_Default.umap" TEMPLATE=1 SHOWPROGRESS=1 FEATURELEVEL=3
[2021.10.05-19.04.43:586][  0]LightingResults: New page: Lighting Build
[2021.10.05-19.04.43:587][  0]LogWorld: UWorld::CleanupWorld for Untitled, bSessionEnded=true, bCleanupResources=true
[2021.10.05-19.04.43:587][  0]LogSlate: InvalidateAllWidgets triggered.  All widgets were invalidated
[2021.10.05-19.04.43:587][  0]MapCheck: New page: Map Check
[2021.10.05-19.04.43:587][  0]LightingResults: New page: Lighting Build
[2021.10.05-19.04.43:594][  0]LogUObjectHash: Compacting FUObjectHashTables data took   0.93ms
[2021.10.05-19.04.43:662][  0]LogTexture: Display: Building textures: DeprecatedTextureEB9CBE3C423008B5E8E130901E171C89 (BGRA8, 128X128)
[2021.10.05-19.04.43:669][  0]LogAudio: Display: Audio Device (ID: 1) registered with world 'Untitled_1'.
[2021.10.05-19.04.43:670][  0]LogAIModule: Creating AISystem for world Untitled_1
[2021.10.05-19.04.43:676][  0]LogEditorServer: Finished looking for orphan Actors (0.000 secs)
[2021.10.05-19.04.43:684][  0]LogUObjectHash: Compacting FUObjectHashTables data took   1.00ms
[2021.10.05-19.04.43:684][  0]Cmd: MAP CHECKDEP NOCLEARLOG
[2021.10.05-19.04.43:685][  0]MapCheck: Map check complete: 0 Error(s), 0 Warning(s), took 0.169ms to complete.
[2021.10.05-19.04.43:685][  0]LogFileHelpers: Loading map 'Template_Default' took 0.100
[2021.10.05-19.04.43:687][  0]LogUnrealEdMisc: Total Editor Startup Time, took 7.083
[2021.10.05-19.04.43:830][  0]LogSlate: Updating window title bar state: overlay mode, drag disabled, window buttons hidden, title bar hidden
[2021.10.05-19.04.43:839][  0]LogSlate: Updating window title bar state: overlay mode, drag disabled, window buttons hidden, title bar hidden
[2021.10.05-19.04.43:846][  0]LogSlate: Updating window title bar state: overlay mode, drag disabled, window buttons hidden, title bar hidden
[2021.10.05-19.04.43:854][  0]LogSlate: Updating window title bar state: overlay mode, drag disabled, window buttons hidden, title bar hidden
[2021.10.05-19.04.43:874][  0]LogNativeClassHierarchy: Verbose: Native class hierarchy populated in 0.0136 seconds. Added 3668 classes and 870 folders.
[2021.10.05-19.04.43:879][  0]LogNativeClassHierarchy: Verbose: Native class hierarchy updated for 'WidgetCarousel' in 0.0003 seconds. Added 0 classes and 0 folders.
[2021.10.05-19.04.43:881][  0]LogPakFile: PakFile PrimaryIndexSize=187
[2021.10.05-19.04.43:881][  0]LogPakFile: PakFile PathHashIndexSize=101
[2021.10.05-19.04.43:881][  0]LogPakFile: PakFile FullDirectoryIndexSize=148
[2021.10.05-19.04.43:881][  0]LogPakFile: OnPakFileMounted2Time == 0.000009
[2021.10.05-19.04.43:882][  0]LogPakFile: PakFile PrimaryIndexSize=189
[2021.10.05-19.04.43:882][  0]LogPakFile: PakFile PathHashIndexSize=101
[2021.10.05-19.04.43:882][  0]LogPakFile: PakFile FullDirectoryIndexSize=152
[2021.10.05-19.04.43:882][  0]LogPakFile: OnPakFileMounted2Time == 0.000010
[2021.10.05-19.04.43:883][  0]LogPakFile: PakFile PrimaryIndexSize=191
[2021.10.05-19.04.43:883][  0]LogPakFile: PakFile PathHashIndexSize=101
[2021.10.05-19.04.43:883][  0]LogPakFile: PakFile FullDirectoryIndexSize=160
[2021.10.05-19.04.43:883][  0]LogPakFile: OnPakFileMounted2Time == 0.000011
[2021.10.05-19.04.43:884][  0]LogPakFile: PakFile PrimaryIndexSize=185
[2021.10.05-19.04.43:884][  0]LogPakFile: PakFile PathHashIndexSize=101
[2021.10.05-19.04.43:884][  0]LogPakFile: PakFile FullDirectoryIndexSize=148
[2021.10.05-19.04.43:884][  0]LogPakFile: OnPakFileMounted2Time == 0.000013
[2021.10.05-19.04.43:884][  0]LogPakFile: PakFile PrimaryIndexSize=190
[2021.10.05-19.04.43:884][  0]LogPakFile: PakFile PathHashIndexSize=101
[2021.10.05-19.04.43:884][  0]LogPakFile: PakFile FullDirectoryIndexSize=154
[2021.10.05-19.04.43:884][  0]LogPakFile: OnPakFileMounted2Time == 0.000014
[2021.10.05-19.04.43:885][  0]LogPakFile: PakFile PrimaryIndexSize=192
[2021.10.05-19.04.43:885][  0]LogPakFile: PakFile PathHashIndexSize=101
[2021.10.05-19.04.43:885][  0]LogPakFile: PakFile FullDirectoryIndexSize=158
[2021.10.05-19.04.43:885][  0]LogPakFile: OnPakFileMounted2Time == 0.000015
[2021.10.05-19.04.43:886][  0]LogPakFile: PakFile PrimaryIndexSize=182
[2021.10.05-19.04.43:886][  0]LogPakFile: PakFile PathHashIndexSize=101
[2021.10.05-19.04.43:886][  0]LogPakFile: PakFile FullDirectoryIndexSize=138
[2021.10.05-19.04.43:886][  0]LogPakFile: OnPakFileMounted2Time == 0.000016
[2021.10.05-19.04.43:887][  0]LogPakFile: PakFile PrimaryIndexSize=184
[2021.10.05-19.04.43:887][  0]LogPakFile: PakFile PathHashIndexSize=101
[2021.10.05-19.04.43:887][  0]LogPakFile: PakFile FullDirectoryIndexSize=142
[2021.10.05-19.04.43:887][  0]LogPakFile: OnPakFileMounted2Time == 0.000018
[2021.10.05-19.04.43:888][  0]LogPakFile: PakFile PrimaryIndexSize=188
[2021.10.05-19.04.43:888][  0]LogPakFile: PakFile PathHashIndexSize=101
[2021.10.05-19.04.43:888][  0]LogPakFile: PakFile FullDirectoryIndexSize=150
[2021.10.05-19.04.43:888][  0]LogPakFile: OnPakFileMounted2Time == 0.000019
[2021.10.05-19.04.43:888][  0]LogPakFile: PakFile PrimaryIndexSize=182
[2021.10.05-19.04.43:888][  0]LogPakFile: PakFile PathHashIndexSize=101
[2021.10.05-19.04.43:888][  0]LogPakFile: PakFile FullDirectoryIndexSize=138
[2021.10.05-19.04.43:888][  0]LogPakFile: OnPakFileMounted2Time == 0.000020
[2021.10.05-19.04.43:889][  0]LogPakFile: PakFile PrimaryIndexSize=184
[2021.10.05-19.04.43:889][  0]LogPakFile: PakFile PathHashIndexSize=101
[2021.10.05-19.04.43:889][  0]LogPakFile: PakFile FullDirectoryIndexSize=142
[2021.10.05-19.04.43:889][  0]LogPakFile: OnPakFileMounted2Time == 0.000021
[2021.10.05-19.04.43:890][  0]LogPakFile: PakFile PrimaryIndexSize=183
[2021.10.05-19.04.43:890][  0]LogPakFile: PakFile PathHashIndexSize=101
[2021.10.05-19.04.43:890][  0]LogPakFile: PakFile FullDirectoryIndexSize=140
[2021.10.05-19.04.43:890][  0]LogPakFile: OnPakFileMounted2Time == 0.000022
[2021.10.05-19.04.43:891][  0]LogPakFile: PakFile PrimaryIndexSize=185
[2021.10.05-19.04.43:891][  0]LogPakFile: PakFile PathHashIndexSize=101
[2021.10.05-19.04.43:891][  0]LogPakFile: PakFile FullDirectoryIndexSize=144
[2021.10.05-19.04.43:891][  0]LogPakFile: OnPakFileMounted2Time == 0.000024
[2021.10.05-19.04.43:892][  0]LogPakFile: PakFile PrimaryIndexSize=188
[2021.10.05-19.04.43:892][  0]LogPakFile: PakFile PathHashIndexSize=101
[2021.10.05-19.04.43:892][  0]LogPakFile: PakFile FullDirectoryIndexSize=150
[2021.10.05-19.04.43:892][  0]LogPakFile: OnPakFileMounted2Time == 0.000025
[2021.10.05-19.04.43:892][  0]LogPakFile: PakFile PrimaryIndexSize=190
[2021.10.05-19.04.43:892][  0]LogPakFile: PakFile PathHashIndexSize=101
[2021.10.05-19.04.43:892][  0]LogPakFile: PakFile FullDirectoryIndexSize=154
[2021.10.05-19.04.43:893][  0]LogPakFile: OnPakFileMounted2Time == 0.000026
[2021.10.05-19.04.43:893][  0]LogPakFile: PakFile PrimaryIndexSize=187
[2021.10.05-19.04.43:893][  0]LogPakFile: PakFile PathHashIndexSize=101
[2021.10.05-19.04.43:893][  0]LogPakFile: PakFile FullDirectoryIndexSize=148
[2021.10.05-19.04.43:893][  0]LogPakFile: OnPakFileMounted2Time == 0.000027
[2021.10.05-19.04.43:894][  0]LogPakFile: PakFile PrimaryIndexSize=189
[2021.10.05-19.04.43:894][  0]LogPakFile: PakFile PathHashIndexSize=101
[2021.10.05-19.04.43:894][  0]LogPakFile: PakFile FullDirectoryIndexSize=152
[2021.10.05-19.04.43:894][  0]LogPakFile: OnPakFileMounted2Time == 0.000029
[2021.10.05-19.04.43:895][  0]LogPakFile: PakFile PrimaryIndexSize=183
[2021.10.05-19.04.43:895][  0]LogPakFile: PakFile PathHashIndexSize=101
[2021.10.05-19.04.43:895][  0]LogPakFile: PakFile FullDirectoryIndexSize=140
[2021.10.05-19.04.43:895][  0]LogPakFile: OnPakFileMounted2Time == 0.000030
[2021.10.05-19.04.43:896][  0]LogPakFile: PakFile PrimaryIndexSize=185
[2021.10.05-19.04.43:896][  0]LogPakFile: PakFile PathHashIndexSize=101
[2021.10.05-19.04.43:896][  0]LogPakFile: PakFile FullDirectoryIndexSize=144
[2021.10.05-19.04.43:896][  0]LogPakFile: OnPakFileMounted2Time == 0.000032
[2021.10.05-19.04.43:897][  0]LogPakFile: PakFile PrimaryIndexSize=185
[2021.10.05-19.04.43:897][  0]LogPakFile: PakFile PathHashIndexSize=101
[2021.10.05-19.04.43:897][  0]LogPakFile: PakFile FullDirectoryIndexSize=144
[2021.10.05-19.04.43:897][  0]LogPakFile: OnPakFileMounted2Time == 0.000033
[2021.10.05-19.04.43:897][  0]LogPakFile: PakFile PrimaryIndexSize=187
[2021.10.05-19.04.43:897][  0]LogPakFile: PakFile PathHashIndexSize=101
[2021.10.05-19.04.43:897][  0]LogPakFile: PakFile FullDirectoryIndexSize=148
[2021.10.05-19.04.43:897][  0]LogPakFile: OnPakFileMounted2Time == 0.000035
[2021.10.05-19.04.43:898][  0]LogPakFile: PakFile PrimaryIndexSize=183
[2021.10.05-19.04.43:898][  0]LogPakFile: PakFile PathHashIndexSize=101
[2021.10.05-19.04.43:898][  0]LogPakFile: PakFile FullDirectoryIndexSize=140
[2021.10.05-19.04.43:898][  0]LogPakFile: OnPakFileMounted2Time == 0.000036
[2021.10.05-19.04.43:899][  0]LogPakFile: PakFile PrimaryIndexSize=186
[2021.10.05-19.04.43:899][  0]LogPakFile: PakFile PathHashIndexSize=101
[2021.10.05-19.04.43:899][  0]LogPakFile: PakFile FullDirectoryIndexSize=146
[2021.10.05-19.04.43:899][  0]LogPakFile: OnPakFileMounted2Time == 0.000037
[2021.10.05-19.04.43:900][  0]LogPakFile: PakFile PrimaryIndexSize=188
[2021.10.05-19.04.43:900][  0]LogPakFile: PakFile PathHashIndexSize=101
[2021.10.05-19.04.43:900][  0]LogPakFile: PakFile FullDirectoryIndexSize=150
[2021.10.05-19.04.43:900][  0]LogPakFile: OnPakFileMounted2Time == 0.000038
[2021.10.05-19.04.43:900][  0]LogPakFile: PakFile PrimaryIndexSize=185
[2021.10.05-19.04.43:900][  0]LogPakFile: PakFile PathHashIndexSize=101
[2021.10.05-19.04.43:900][  0]LogPakFile: PakFile FullDirectoryIndexSize=144
[2021.10.05-19.04.43:900][  0]LogPakFile: OnPakFileMounted2Time == 0.000040
[2021.10.05-19.04.43:901][  0]LogPakFile: PakFile PrimaryIndexSize=192
[2021.10.05-19.04.43:901][  0]LogPakFile: PakFile PathHashIndexSize=101
[2021.10.05-19.04.43:901][  0]LogPakFile: PakFile FullDirectoryIndexSize=158
[2021.10.05-19.04.43:901][  0]LogPakFile: OnPakFileMounted2Time == 0.000041
[2021.10.05-19.04.43:981][  0]LogNativeClassHierarchy: Verbose: Native class hierarchy updated for 'AddContentDialog' in 0.0003 seconds. Added 0 classes and 0 folders.
[2021.10.05-19.04.43:986][  0]LogNativeClassHierarchy: Verbose: Native class hierarchy updated for 'SceneOutliner' in 0.0003 seconds. Added 2 classes and 0 folders.
[2021.10.05-19.04.44:094][  0]LogSlate: Took 0.000285 seconds to synchronously load lazily loaded font '../../../Engine/Content/Slate/Fonts/Roboto-Regular.ttf' (155K)
[2021.10.05-19.04.44:096][  0]LogSlate: Took 0.000234 seconds to synchronously load lazily loaded font '../../../Engine/Content/Slate/Fonts/Roboto-Bold.ttf' (160K)
[2021.10.05-19.04.44:102][  0]LogSlate: Took 0.000316 seconds to synchronously load lazily loaded font '../../../Engine/Content/Editor/Slate/Fonts/FontAwesome.ttf' (139K)
[2021.10.05-19.04.44:211][  0]LogRenderer: Reallocating scene render targets to support 872x572 Format 10 NumSamples 1 (Frame:1).
[2021.10.05-19.04.44:315][  0]LogNativeClassHierarchy: Verbose: Native class hierarchy updated for 'HierarchicalLODOutliner' in 0.0003 seconds. Added 0 classes and 0 folders.
[2021.10.05-19.04.44:315][  0]LogLoad: (Engine Initialization) Total time: 7.71 seconds
[2021.10.05-19.04.44:315][  0]LogLoad: (Engine Initialization) Total Blueprint compile time: 0.00 seconds
[2021.10.05-19.04.44:315][  0]LogInit: First time updating LLM stats...
[2021.10.05-19.04.44:327][  0]LogOcInput: OculusInput is initialized
[2021.10.05-19.04.44:356][  0]LogAssetRegistry: Asset discovery search completed in 4.1792 seconds
[2021.10.05-19.04.44:357][  0]LogCollectionManager: Fixed up redirectors for 0 collections in 0.000004 seconds (updated 0 objects)
[2021.10.05-19.04.44:381][  0]LogContentStreaming: Texture pool size now 1000 MB
[2021.10.05-19.04.44:472][  3]LogSlate: Took 0.000230 seconds to synchronously load lazily loaded font '../../../Engine/Content/Slate/Fonts/Roboto-Light.ttf' (167K)
[2021.10.05-19.04.45:892][ 88]LogSlate: Took 0.000287 seconds to synchronously load lazily loaded font '../../../Engine/Content/Slate/Fonts/Roboto-Light.ttf' (167K)
[2021.10.05-19.05.26:175][430]LogTemp: Repeating last play command: VR Preview
[2021.10.05-19.05.26:183][430]LogPlayLevel: PlayLevel: No blueprints needed recompiling
[2021.10.05-19.05.26:183][430]PIE: New page: PIE session: Untitled_1 (Oct 5, 2021, 11:05:26 AM)
[2021.10.05-19.05.26:184][430]LogOnline: OSS: Creating online subsystem instance for: NULL
[2021.10.05-19.05.26:185][430]LogOnline: OSS: TryLoadSubsystemAndSetDefault: Loaded subsystem for module [NULL]
[2021.10.05-19.05.26:185][430]LogPlayLevel: Creating play world package: /Temp/UEDPIE_0_Untitled_1
[2021.10.05-19.05.26:188][430]LogPlayLevel: PIE: StaticDuplicateObject took: (0.002737s)
[2021.10.05-19.05.26:189][430]LogAIModule: Creating AISystem for world Untitled_1
[2021.10.05-19.05.26:189][430]LogPlayLevel: PIE: World Init took: (0.001212s)
[2021.10.05-19.05.26:189][430]LogPlayLevel: PIE: Created PIE world by copying editor world from /Temp/Untitled_1.Untitled_1 to /Temp/UEDPIE_0_Untitled_1.Untitled_1 (0.004129s)
[2021.10.05-19.05.26:194][430]LogUObjectHash: Compacting FUObjectHashTables data took   0.72ms
[2021.10.05-19.05.26:195][430]LogAudio: Display: Creating Audio Device:                 Id: 2, Scope: Unique, Realtime: True
[2021.10.05-19.05.26:195][430]LogAudioMixer: Display: Audio Mixer Platform Settings:
[2021.10.05-19.05.26:195][430]LogAudioMixer: Display: 	Sample Rate:						  48000
[2021.10.05-19.05.26:195][430]LogAudioMixer: Display: 	Callback Buffer Frame Size Requested: 1024
[2021.10.05-19.05.26:195][430]LogAudioMixer: Display: 	Callback Buffer Frame Size To Use:	  1024
[2021.10.05-19.05.26:195][430]LogAudioMixer: Display: 	Number of buffers to queue:			  2
[2021.10.05-19.05.26:195][430]LogAudioMixer: Display: 	Max Channels (voices):				  32
[2021.10.05-19.05.26:195][430]LogAudioMixer: Display: 	Number of Async Source Workers:		  0
[2021.10.05-19.05.26:195][430]LogAudio: Display: AudioDevice MaxSources: 32
[2021.10.05-19.05.26:195][430]LogAudio: Display: Using built-in audio occlusion.
[2021.10.05-19.05.26:195][430]LogAudioMixer: Display: Initializing audio mixer.
[2021.10.05-19.05.26:198][430]LogAudioMixer: Display: 0: FrontLeft
[2021.10.05-19.05.26:198][430]LogAudioMixer: Display: 1: FrontRight
[2021.10.05-19.05.26:199][430]LogAudioMixer: Display: 0: FrontLeft
[2021.10.05-19.05.26:199][430]LogAudioMixer: Display: 1: FrontRight
[2021.10.05-19.05.26:200][430]LogAudioMixer: Display: 0: FrontLeft
[2021.10.05-19.05.26:200][430]LogAudioMixer: Display: 1: FrontRight
[2021.10.05-19.05.26:201][430]LogAudioMixer: Display: 0: FrontLeft
[2021.10.05-19.05.26:201][430]LogAudioMixer: Display: 1: FrontRight
[2021.10.05-19.05.26:202][430]LogAudioMixer: Display: 0: FrontLeft
[2021.10.05-19.05.26:202][430]LogAudioMixer: Display: 1: FrontRight
[2021.10.05-19.05.26:204][430]LogAudioMixer: Display: 0: FrontLeft
[2021.10.05-19.05.26:204][430]LogAudioMixer: Display: 1: FrontRight
[2021.10.05-19.05.26:217][430]LogAudioMixer: Display: Using Audio Device Headphones (Rift Audio)
[2021.10.05-19.05.26:217][430]LogAudioMixer: Display: Initializing Sound Submixes...
[2021.10.05-19.05.26:217][430]LogAudioMixer: Display: Creating Master Submix 'MasterSubmixDefault'
[2021.10.05-19.05.26:217][430]LogAudioMixer: Display: Creating Master Submix 'MasterReverbSubmixDefault'
[2021.10.05-19.05.26:218][430]LogAudioMixer: Display: Creating Master Submix 'MasterEQSubmixDefault'
[2021.10.05-19.05.26:218][430]LogAudioMixer: FMixerPlatformXAudio2::StartAudioStream() called
[2021.10.05-19.05.26:218][430]LogAudioMixer: Display: Output buffers initialized: Frames=1024, Channels=2, Samples=2048
[2021.10.05-19.05.26:236][430]LogAudioMixer: Display: Starting AudioMixerPlatformInterface::RunInternal()
[2021.10.05-19.05.26:236][430]LogAudioMixer: Display: FMixerPlatformXAudio2::SubmitBuffer() called for the first time
[2021.10.05-19.05.26:236][430]LogInit: FAudioDevice initialized.
[2021.10.05-19.05.26:236][430]LogAudio: Display: Audio Device (ID: 2) registered with world 'Untitled_1'.
[2021.10.05-19.05.26:248][430]LogSlate: Updating window title bar state: overlay mode, drag disabled, window buttons hidden, title bar hidden
[2021.10.05-19.05.26:277][430]LogLoad: Game class is 'GameModeBase'
[2021.10.05-19.05.26:278][430]LogWorld: Bringing World /Temp/UEDPIE_0_Untitled_1.Untitled_1 up for play (max tick rate 0) at 2021.10.05-15.05.26
[2021.10.05-19.05.26:278][430]LogWorld: Bringing up level for play took: 0.000632
[2021.10.05-19.05.26:278][430]LogOnline: OSS: Creating online subsystem instance for: :Context_1
[2021.10.05-19.05.26:282][430]LogNativeClassHierarchy: Verbose: Native class hierarchy updated for 'MovieSceneCapture' in 0.0004 seconds. Added 20 classes and 0 folders.
[2021.10.05-19.05.26:285][430]PIE: Server logged in
[2021.10.05-19.05.26:286][430]PIE: Play in editor total start time 0.104 seconds.
[2021.10.05-19.05.26:288][430]LogEngine: Changing dynamic resolution state.
[2021.10.05-19.05.26:336][431]LogRenderer: Warning: Resizing VR buffer to 2688 by 1600
[2021.10.05-19.05.26:336][431]LogRenderer: Reallocating scene render targets to support 2688x1600 Format 10 NumSamples 1 (Frame:1).
[2021.10.05-19.05.26:336][431]LogHMD: Allocating Oculus 2688 x 1600 depth rendertarget swapchain
[2021.10.05-19.05.50:201][182]LogSlate: Updating window title bar state: overlay mode, drag disabled, window buttons hidden, title bar hidden
[2021.10.05-19.05.50:201][182]LogWorld: BeginTearingDown for /Temp/UEDPIE_0_Untitled_1
[2021.10.05-19.05.50:202][182]LogSlate: Window 'VRRobo Preview [NetMode: Standalone]  (64-bit/Windows) OculusHMD' being destroyed
[2021.10.05-19.05.50:228][182]LogWorld: UWorld::CleanupWorld for Untitled_1, bSessionEnded=true, bCleanupResources=true
[2021.10.05-19.05.50:228][182]LogSlate: InvalidateAllWidgets triggered.  All widgets were invalidated
[2021.10.05-19.05.50:239][182]LogPlayLevel: Display: Shutting down PIE online subsystems
[2021.10.05-19.05.50:240][182]LogSlate: InvalidateAllWidgets triggered.  All widgets were invalidated
[2021.10.05-19.05.50:244][182]LogAudio: Display: Audio Device unregistered from world 'None'.
[2021.10.05-19.05.50:244][182]LogAudioMixer: FMixerPlatformXAudio2::StopAudioStream() called
[2021.10.05-19.05.50:246][182]LogAudioMixer: FMixerPlatformXAudio2::StopAudioStream() called
[2021.10.05-19.05.50:267][182]LogUObjectHash: Compacting FUObjectHashTables data took   0.97ms
[2021.10.05-19.05.50:284][183]LogPlayLevel: Display: Destroying online subsystem :Context_1
[2021.10.05-19.05.50:291][183]LogEngine: Changing dynamic resolution state.
[2021.10.05-19.05.59:245][227]LogUObjectHash: Compacting FUObjectHashTables data took   0.70ms
[2021.10.05-19.05.59:330][227]LogAssetEditorSubsystem: Opening Asset editor for World /Game/EmptyMap.EmptyMap
[2021.10.05-19.05.59:330][227]Cmd: MAP LOAD FILE="D:/Unreal Projects/VRRobo/Content/EmptyMap.umap" TEMPLATE=0 SHOWPROGRESS=1 FEATURELEVEL=3
[2021.10.05-19.05.59:330][227]LightingResults: New page: Lighting Build
[2021.10.05-19.05.59:330][227]LoadErrors: New page: Loading map: EmptyMap.umap
[2021.10.05-19.05.59:330][227]LogWorld: UWorld::CleanupWorld for Untitled_1, bSessionEnded=true, bCleanupResources=true
[2021.10.05-19.05.59:331][227]LogSlate: InvalidateAllWidgets triggered.  All widgets were invalidated
[2021.10.05-19.05.59:331][227]MapCheck: New page: Map Check
[2021.10.05-19.05.59:331][227]LightingResults: New page: Lighting Build
[2021.10.05-19.05.59:335][227]LogAudio: Display: Audio Device unregistered from world 'None'.
[2021.10.05-19.05.59:339][227]LogUObjectHash: Compacting FUObjectHashTables data took   1.06ms
[2021.10.05-19.05.59:339][227]LogAudio: Display: Audio Device (ID: 1) registered with world 'EmptyMap'.
[2021.10.05-19.05.59:422][227]LogEditorServer: Finished looking for orphan Actors (0.000 secs)
[2021.10.05-19.05.59:422][227]LogAIModule: Creating AISystem for world EmptyMap
[2021.10.05-19.05.59:428][227]LogUObjectHash: Compacting FUObjectHashTables data took   0.73ms
[2021.10.05-19.05.59:442][227]Cmd: MAP CHECKDEP NOCLEARLOG
[2021.10.05-19.05.59:442][227]MapCheck: Map check complete: 0 Error(s), 0 Warning(s), took 0.109ms to complete.
[2021.10.05-19.05.59:442][227]LogFileHelpers: Loading map 'EmptyMap' took 0.113
[2021.10.05-19.06.06:972][ 83]LogTemp: Repeating last play command: VR Preview
[2021.10.05-19.06.06:980][ 83]LogPlayLevel: PlayLevel: No blueprints needed recompiling
[2021.10.05-19.06.06:980][ 83]LogHMD: Initializing OVRPlugin session
[2021.10.05-19.06.07:138][ 83]LogHMD: Allocating Oculus 2688 x 1600 rendertarget swapchain
[2021.10.05-19.06.07:139][ 83]PIE: New page: PIE session: EmptyMap (Oct 5, 2021, 11:06:07 AM)
[2021.10.05-19.06.07:139][ 83]LogPlayLevel: Creating play world package: /Game/UEDPIE_0_EmptyMap
[2021.10.05-19.06.07:142][ 83]LogPlayLevel: PIE: StaticDuplicateObject took: (0.002515s)
[2021.10.05-19.06.07:143][ 83]LogAIModule: Creating AISystem for world EmptyMap
[2021.10.05-19.06.07:143][ 83]LogPlayLevel: PIE: World Init took: (0.001235s)
[2021.10.05-19.06.07:143][ 83]LogPlayLevel: PIE: Created PIE world by copying editor world from /Game/EmptyMap.EmptyMap to /Game/UEDPIE_0_EmptyMap.EmptyMap (0.003911s)
[2021.10.05-19.06.07:148][ 83]LogUObjectHash: Compacting FUObjectHashTables data took   0.79ms
[2021.10.05-19.06.07:148][ 83]LogAudio: Display: Creating Audio Device:                 Id: 3, Scope: Unique, Realtime: True
[2021.10.05-19.06.07:148][ 83]LogAudioMixer: Display: Audio Mixer Platform Settings:
[2021.10.05-19.06.07:148][ 83]LogAudioMixer: Display: 	Sample Rate:						  48000
[2021.10.05-19.06.07:148][ 83]LogAudioMixer: Display: 	Callback Buffer Frame Size Requested: 1024
[2021.10.05-19.06.07:148][ 83]LogAudioMixer: Display: 	Callback Buffer Frame Size To Use:	  1024
[2021.10.05-19.06.07:148][ 83]LogAudioMixer: Display: 	Number of buffers to queue:			  2
[2021.10.05-19.06.07:149][ 83]LogAudioMixer: Display: 	Max Channels (voices):				  32
[2021.10.05-19.06.07:149][ 83]LogAudioMixer: Display: 	Number of Async Source Workers:		  0
[2021.10.05-19.06.07:149][ 83]LogAudio: Display: AudioDevice MaxSources: 32
[2021.10.05-19.06.07:149][ 83]LogAudio: Display: Using built-in audio occlusion.
[2021.10.05-19.06.07:149][ 83]LogAudioMixer: Display: Initializing audio mixer.
[2021.10.05-19.06.07:152][ 83]LogAudioMixer: Display: 0: FrontLeft
[2021.10.05-19.06.07:152][ 83]LogAudioMixer: Display: 1: FrontRight
[2021.10.05-19.06.07:153][ 83]LogAudioMixer: Display: 0: FrontLeft
[2021.10.05-19.06.07:153][ 83]LogAudioMixer: Display: 1: FrontRight
[2021.10.05-19.06.07:154][ 83]LogAudioMixer: Display: 0: FrontLeft
[2021.10.05-19.06.07:154][ 83]LogAudioMixer: Display: 1: FrontRight
[2021.10.05-19.06.07:155][ 83]LogAudioMixer: Display: 0: FrontLeft
[2021.10.05-19.06.07:155][ 83]LogAudioMixer: Display: 1: FrontRight
[2021.10.05-19.06.07:156][ 83]LogAudioMixer: Display: 0: FrontLeft
[2021.10.05-19.06.07:156][ 83]LogAudioMixer: Display: 1: FrontRight
[2021.10.05-19.06.07:158][ 83]LogAudioMixer: Display: 0: FrontLeft
[2021.10.05-19.06.07:158][ 83]LogAudioMixer: Display: 1: FrontRight
[2021.10.05-19.06.07:170][ 83]LogAudioMixer: Display: Using Audio Device Headphones (Rift Audio)
[2021.10.05-19.06.07:170][ 83]LogAudioMixer: Display: Initializing Sound Submixes...
[2021.10.05-19.06.07:170][ 83]LogAudioMixer: Display: Creating Master Submix 'MasterSubmixDefault'
[2021.10.05-19.06.07:170][ 83]LogAudioMixer: Display: Creating Master Submix 'MasterReverbSubmixDefault'
[2021.10.05-19.06.07:171][ 83]LogAudioMixer: Display: Creating Master Submix 'MasterEQSubmixDefault'
[2021.10.05-19.06.07:171][ 83]LogAudioMixer: FMixerPlatformXAudio2::StartAudioStream() called
[2021.10.05-19.06.07:171][ 83]LogAudioMixer: Display: Output buffers initialized: Frames=1024, Channels=2, Samples=2048
[2021.10.05-19.06.07:191][ 83]LogAudioMixer: Display: Starting AudioMixerPlatformInterface::RunInternal()
[2021.10.05-19.06.07:191][ 83]LogAudioMixer: Display: FMixerPlatformXAudio2::SubmitBuffer() called for the first time
[2021.10.05-19.06.07:191][ 83]LogInit: FAudioDevice initialized.
[2021.10.05-19.06.07:191][ 83]LogAudio: Display: Audio Device (ID: 3) registered with world 'EmptyMap'.
[2021.10.05-19.06.07:203][ 83]LogSlate: Updating window title bar state: overlay mode, drag disabled, window buttons hidden, title bar hidden
[2021.10.05-19.06.07:234][ 83]LogLoad: Game class is 'VRRobo_GameMode_C'
[2021.10.05-19.06.07:235][ 83]LogWorld: Bringing World /Game/UEDPIE_0_EmptyMap.EmptyMap up for play (max tick rate 0) at 2021.10.05-15.06.07
[2021.10.05-19.06.07:236][ 83]LogWorld: Bringing up level for play took: 0.000789
[2021.10.05-19.06.07:236][ 83]LogOnline: OSS: Creating online subsystem instance for: :Context_2
[2021.10.05-19.06.07:243][ 83]PIE: Server logged in
[2021.10.05-19.06.07:244][ 83]PIE: Play in editor total start time 0.264 seconds.
[2021.10.05-19.06.07:244][ 83]LogEngine: Changing dynamic resolution state.
[2021.10.05-19.06.07:287][ 84]LogHMD: Allocating Oculus 2688 x 1600 depth rendertarget swapchain
[2021.10.05-19.06.07:320][ 86]LogProfilingDebugging: Allocated a 1024 x 1024 texture for HMD canvas layer
[2021.10.05-19.06.24:614][215]LogOutputDevice: Warning: 

Script Stack (0 frames):

[2021.10.05-19.06.24:769][215]LogStats: FPlatformStackWalk::StackWalkAndDump -  0.155 s
[2021.10.05-19.06.24:769][215]LogOutputDevice: Error: === Handled ensure: ===
[2021.10.05-19.06.24:769][215]LogOutputDevice: Error: 
[2021.10.05-19.06.24:769][215]LogOutputDevice: Error: Ensure condition failed: PropertyNodeMap.ParentProperty == CurObjectNode [File:D:/Build/++UE4/Sync/Engine/Source/Editor/PropertyEditor/Private/DetailLayoutHelpers.cpp] [Line: 156]
[2021.10.05-19.06.24:769][215]LogOutputDevice: Error: 
[2021.10.05-19.06.24:769][215]LogOutputDevice: Error: Stack: 
[2021.10.05-19.06.24:769][215]LogOutputDevice: Error: [Callstack] 0x00007ffed36f5959 UE4Editor-PropertyEditor.dll!UnknownFunction []
[2021.10.05-19.06.24:769][215]LogOutputDevice: Error: [Callstack] 0x00007ffed3358b80 UE4Editor-PropertyEditor.dll!UnknownFunction []
[2021.10.05-19.06.24:769][215]LogOutputDevice: Error: [Callstack] 0x00007ffed3358407 UE4Editor-PropertyEditor.dll!UnknownFunction []
[2021.10.05-19.06.24:769][215]LogOutputDevice: Error: [Callstack] 0x00007ffed3358184 UE4Editor-PropertyEditor.dll!UnknownFunction []
[2021.10.05-19.06.24:769][215]LogOutputDevice: Error: [Callstack] 0x00007ffed3359427 UE4Editor-PropertyEditor.dll!UnknownFunction []
[2021.10.05-19.06.24:769][215]LogOutputDevice: Error: [Callstack] 0x00007ffed3358407 UE4Editor-PropertyEditor.dll!UnknownFunction []
[2021.10.05-19.06.24:769][215]LogOutputDevice: Error: [Callstack] 0x00007ffed3358184 UE4Editor-PropertyEditor.dll!UnknownFunction []
[2021.10.05-19.06.24:770][215]LogOutputDevice: Error: [Callstack] 0x00007ffed3359427 UE4Editor-PropertyEditor.dll!UnknownFunction []
[2021.10.05-19.06.24:770][215]LogOutputDevice: Error: [Callstack] 0x00007ffed3358407 UE4Editor-PropertyEditor.dll!UnknownFunction []
[2021.10.05-19.06.24:770][215]LogOutputDevice: Error: [Callstack] 0x00007ffed3627826 UE4Editor-PropertyEditor.dll!UnknownFunction []
[2021.10.05-19.06.24:770][215]LogOutputDevice: Error: [Callstack] 0x00007ffed362651c UE4Editor-PropertyEditor.dll!UnknownFunction []
[2021.10.05-19.06.24:770][215]LogOutputDevice: Error: [Callstack] 0x00007ffed3603e1f UE4Editor-PropertyEditor.dll!UnknownFunction []
[2021.10.05-19.06.24:770][215]LogOutputDevice: Error: [Callstack] 0x00007ffed361b990 UE4Editor-PropertyEditor.dll!UnknownFunction []
[2021.10.05-19.06.24:770][215]LogOutputDevice: Error: [Callstack] 0x00007ffed361c6a7 UE4Editor-PropertyEditor.dll!UnknownFunction []
[2021.10.05-19.06.24:770][215]LogOutputDevice: Error: [Callstack] 0x00007ffecf61aa14 UE4Editor-LevelEditor.dll!UnknownFunction []
[2021.10.05-19.06.24:770][215]LogOutputDevice: Error: [Callstack] 0x00007ffecf5f4068 UE4Editor-LevelEditor.dll!UnknownFunction []
[2021.10.05-19.06.24:770][215]LogOutputDevice: Error: [Callstack] 0x00007ffecf5c4f67 UE4Editor-LevelEditor.dll!UnknownFunction []
[2021.10.05-19.06.24:770][215]LogOutputDevice: Error: [Callstack] 0x00007ffecf4c3399 UE4Editor-LevelEditor.dll!UnknownFunction []
[2021.10.05-19.06.24:770][215]LogOutputDevice: Error: [Callstack] 0x00007ffed7dfd082 UE4Editor-UnrealEd.dll!UnknownFunction []
[2021.10.05-19.06.24:770][215]LogOutputDevice: Error: [Callstack] 0x00007ffed7dfcff0 UE4Editor-UnrealEd.dll!UnknownFunction []
[2021.10.05-19.06.24:770][215]LogOutputDevice: Error: [Callstack] 0x00007ffed7de85bb UE4Editor-UnrealEd.dll!UnknownFunction []
[2021.10.05-19.06.24:770][215]LogOutputDevice: Error: [Callstack] 0x00007ffebd718d79 UE4Editor-SceneOutliner.dll!UnknownFunction []
[2021.10.05-19.06.24:770][215]LogOutputDevice: Error: [Callstack] 0x00007ffebd6e01c7 UE4Editor-SceneOutliner.dll!UnknownFunction []
[2021.10.05-19.06.24:770][215]LogOutputDevice: Error: [Callstack] 0x00007ffebd723806 UE4Editor-SceneOutliner.dll!UnknownFunction []
[2021.10.05-19.06.24:770][215]LogOutputDevice: Error: [Callstack] 0x00007ffebd723b7e UE4Editor-SceneOutliner.dll!UnknownFunction []
[2021.10.05-19.06.24:770][215]LogOutputDevice: Error: [Callstack] 0x00007ffebd71643d UE4Editor-SceneOutliner.dll!UnknownFunction []
[2021.10.05-19.06.24:770][215]LogOutputDevice: Error: [Callstack] 0x00007ffebd716ef1 UE4Editor-SceneOutliner.dll!UnknownFunction []
[2021.10.05-19.06.24:770][215]LogOutputDevice: Error: [Callstack] 0x00007ffed95a46be UE4Editor-Slate.dll!UnknownFunction []
[2021.10.05-19.06.24:770][215]LogOutputDevice: Error: [Callstack] 0x00007ffed9627f14 UE4Editor-Slate.dll!UnknownFunction []
[2021.10.05-19.06.24:770][215]LogOutputDevice: Error: [Callstack] 0x00007ffed9610337 UE4Editor-Slate.dll!UnknownFunction []
[2021.10.05-19.06.24:770][215]LogOutputDevice: Error: [Callstack] 0x00007ffed9603632 UE4Editor-Slate.dll!UnknownFunction []
[2021.10.05-19.06.24:770][215]LogOutputDevice: Error: [Callstack] 0x00007fff2ad1bcb5 UE4Editor-ApplicationCore.dll!UnknownFunction []
[2021.10.05-19.06.24:770][215]LogOutputDevice: Error: [Callstack] 0x00007fff2ad09197 UE4Editor-ApplicationCore.dll!UnknownFunction []
[2021.10.05-19.06.24:770][215]LogOutputDevice: Error: [Callstack] 0x00007fff2ad1e389 UE4Editor-ApplicationCore.dll!UnknownFunction []
[2021.10.05-19.06.24:770][215]LogOutputDevice: Error: [Callstack] 0x00007fff2ad04310 UE4Editor-ApplicationCore.dll!UnknownFunction []
[2021.10.05-19.06.24:770][215]LogOutputDevice: Error: [Callstack] 0x00007fff5ca8e7e8 USER32.dll!UnknownFunction []
[2021.10.05-19.06.24:770][215]LogOutputDevice: Error: [Callstack] 0x00007fff5ca8e229 USER32.dll!UnknownFunction []
[2021.10.05-19.06.24:770][215]LogOutputDevice: Error: [Callstack] 0x00007fff2ad1f914 UE4Editor-ApplicationCore.dll!UnknownFunction []
[2021.10.05-19.06.24:770][215]LogOutputDevice: Error: [Callstack] 0x00007ff668378848 UE4Editor.exe!UnknownFunction []
[2021.10.05-19.06.24:770][215]LogOutputDevice: Error: [Callstack] 0x00007ff66839117c UE4Editor.exe!UnknownFunction []
[2021.10.05-19.06.24:770][215]LogOutputDevice: Error: [Callstack] 0x00007ff66839125a UE4Editor.exe!UnknownFunction []
[2021.10.05-19.06.24:770][215]LogOutputDevice: Error: [Callstack] 0x00007ff6683a52bd UE4Editor.exe!UnknownFunction []
[2021.10.05-19.06.24:770][215]LogOutputDevice: Error: [Callstack] 0x00007ff6683a7fea UE4Editor.exe!UnknownFunction []
[2021.10.05-19.06.24:770][215]LogOutputDevice: Error: [Callstack] 0x00007fff5b217034 KERNEL32.DLL!UnknownFunction []
[2021.10.05-19.06.24:770][215]LogOutputDevice: Error: [Callstack] 0x00007fff5d202651 ntdll.dll!UnknownFunction []
[2021.10.05-19.06.24:770][215]LogOutputDevice: Error: 
